<?xml version="1.0" encoding="utf-8"?>
<!-- Generator: Adobe Illustrator 27.1.0, SVG Export Plug-In . SVG Version: 6.00 Build 0)  -->
<svg version="1.1" id="Layer_1" xmlns="http://www.w3.org/2000/svg" xmlns:xlink="http://www.w3.org/1999/xlink" x="0px" y="0px"
	 viewBox="0 0 500 320" style="enable-background:new 0 0 500 320;" xml:space="preserve">
<style type="text/css">
	.st0{fill:#010101;}
	.st1{fill:#E1282E;}
</style>
<g>
	<path class="st0" d="M31.8,175.8c-5.3,0-9.6-4.3-9.6-9.6V154c0-5.3,4.3-9.6,9.6-9.6h36l0-7H33c-10.1,0-18.2,8.2-18.2,18.2v8.6
		c0,10.1,8.2,18.2,18.2,18.2h46.3l19.2-47h9.7l18.2,47h27.7v-47h27c7.8,0,14.1,6.3,14.1,14.1s-6.3,14.1-14.1,14.1h-4.3l17.5,26.7
		l-0.8,0.5h11l-14.9-22.6c0,0,13.5-2.1,13.5-19c0-16.9-15.3-20.5-15.3-20.5h-41.2v47.2h-14.4l-18.6-47.2H93.4L74,175.7L31.8,175.8
		L31.8,175.8z"/>
	<path class="st0" d="M181.2,161.9c6.8,0,12.2-5.5,12.2-12.2c0-6.8-5.5-12.2-12.2-12.2h-25.1v47h-30.9l-18.2-47h-7.2l-19.2,47H33
		c-11.1,0-20.2-9-20.2-20.2v-8.6c0-11.1,9-20.2,20.2-20.2h34.8v1v-1l0-6.6H32.6C17.3,129,5,141.3,5,156.6v6.8
		C5,178.7,17.3,191,32.6,191h53.2l17.1-44.2l16.8,44.2h43.9v-30l19.1,30h9.8l-19.1-29.1L181.2,161.9L181.2,161.9z M163.7,143.7
		l0.2,0.3h16.8c3.2,0,5.8,2.6,5.8,5.8c0,3.2-2.6,5.8-5.8,5.8h-17V143.7z"/>
	<polygon class="st0" points="237.9,137.5 237.9,191 236,191 236,137.5 210.6,137.5 210.6,135.6 263.8,135.6 267.2,129 210.6,129 
		210.6,144 228.5,144 228.5,191 246.4,191 246.4,144 259.5,144 262.9,137.5 	"/>
	<polygon class="st0" points="284.1,129 284.1,191 282.2,191 282.2,129 275.3,129 275.3,191 291,191 291,129 	"/>
	<path class="st0" d="M415.9,182.7l-17.4-45.2h-7.3l-19.6,46.8h-48.2c-7.1,0-12.9-5.8-12.9-12.9s5.8-12.9,12.9-12.9h14.3
		c5.8,0,10.5-4.7,10.5-10.5c0-5.8-4.7-10.5-10.5-10.5h-30.9l4.2,6.6h26.5c2.2,0,3.9,1.8,3.9,3.9c0,2.2-1.8,3.9-3.9,3.9h-16.6
		c-10.8,0-19.6,8.8-19.6,19.6l0,0c0,10.8,8.8,19.6,19.6,19.6h56.3l4.3-11.6l1.9,3.2L415.9,182.7L415.9,182.7z"/>
	<g>
		<polygon class="st0" points="428.1,182.4 445.6,182.4 445.9,135.6 457.4,135.6 457.7,136.2 476.2,182.4 485.9,182.4 485.9,129 
			478.6,129 478.6,167.8 463.5,129 438.1,129 438,175.6 425.4,175.6 		"/>
		<path class="st0" d="M487.8,129v55.3h-12.9l-0.2-0.6l-18.6-46.3h-8.4l-0.3,46.9h-20.7l-3.4-8.7l0,0L405.2,129h-20.5l-18.8,46.9
			h-42.2c-2.5,0-4.6-2.1-4.6-4.6s2.1-4.6,4.6-4.6h16.5c9.4,0,17.1-7.6,17.1-17.1v-5.1c0-8.6-7-15.6-15.6-15.6h-40.4l4.2,6.6l32.1,0
			c6.8,0,12.4,5.5,12.4,12.4s-5.5,12.4-12.4,12.4h-14.3c-6.1,0-11,4.9-11,11c0,6.1,4.9,11,11,11h46.9l19.6-46.8h9.9l18.9,49h-34.1
			l3.8,6.4h66.5v-39.6L470,191H495V129L487.8,129L487.8,129z"/>
	</g>
	<polygon class="st1" points="394.6,146.5 382.9,176 394.6,170.9 405.4,176 	"/>
</g>
</svg>
