<?xml version="1.0" encoding="utf-8"?>
<!-- Generator: Adobe Illustrator 27.1.0, SVG Export Plug-In . SVG Version: 6.00 Build 0)  -->
<svg version="1.1" id="Layer_1" xmlns="http://www.w3.org/2000/svg" xmlns:xlink="http://www.w3.org/1999/xlink" x="0px" y="0px"
	 viewBox="0 0 500 320" style="enable-background:new 0 0 500 320;" xml:space="preserve">
<style type="text/css">
	.st0{fill:#FFFFFF;}
	.st1{fill:#274A6F;}
</style>
<g>
	<path class="st0" d="M465.6,152.4h-24l9.7-44.5l1.8-8.4h-8.6h-19.3h-5.6l-1.2,5.5L407.5,155l-11.4-50l-1.2-5.4h-5.5h-19h-3.7
		l-2.1,3.1l-44.7,68.2l-4.1,6.3l0.2-1l10.1-47.4h15.3h5.6l1.2-5.5l3.3-15.3l1.8-8.4h-8.6h-60.1h-1.2h-5.6H276h-19.3H251l-1.2,5.5
		l-1.5,7.3c-3.2-4.4-7.4-7.9-12.6-10.3c-5.5-2.6-12.1-3.9-19.4-3.9c-0.6,0-1.2,0-1.7,0.1c2.4-14.3-0.8-27.7-9.1-37.9
		c-8.5-10.5-21.4-16.3-36.1-16.3h-5.6l-1.1,5.5l-2.2,10.5h-0.1l-1.1,5.5l-2.5,12.4l-1.1,5.3c-6.2,2.2-11.3,7.6-12.6,14.1
		c-0.6,3.1-0.3,6.2,0.8,8.9h-2.4l-1.1,5.5l-2.4,11.7c-0.3-1.3-0.7-2.5-1.2-3.7c-2.8-6.6-7.5-11.8-14.2-15.3c-6.2-3.3-13.7-5-22.3-5
		H67.6h-5.7l-1.1,5.6l-13.7,68.2l-1.4,6.8h-0.5l-1.1,5.6l-16.6,81.9l-1.7,8.3h8.5h407.8h5.7l1.1-5.6l16.6-81.9l1.4-6.8h0.8l1.2-5.4
		l3.4-15.3l1.8-8.4L465.6,152.4L465.6,152.4z M351.2,178.3l6.1-9.9h19.2l1.4,7.6l0.8,4.2h-28.7L351.2,178.3z M267.6,180.1l0.8-4
		l9.9-47.4h1.7h12.4l-9.4,44.5l-1.5,6.9L267.6,180.1L267.6,180.1z M244.2,132.2h-6.6h-1.7l9.9-7.5L244.2,132.2z M213.7,137.7
		l-3.1,14.8c-1.6,0.4-3.2,0.6-4.9,0.6c-2.4,0-4.4-0.5-5.8-1.4c-1.3-0.8-2.1-1.8-2.6-3.3c-0.6-1.7-0.6-3.9-0.1-6.4
		c0.9-4.4,2.8-7.7,5.9-10.2c3.1-2.5,6.6-3.7,10.8-3.7c4,0,6.8,1.3,9,4.1h-2.5h-5.6L213.7,137.7z M173.1,114.7l1.7-8.3h-1.6
		c0.1-0.2,0.2-0.3,0.3-0.5h5.3h7.6h1.7c-5.4,3.2-10.1,7.2-14,12.1c-0.9,1.1-1.7,2.2-2.5,3.4L173.1,114.7z M160.5,176l3.8-18.7
		c0.3,1.4,0.8,2.7,1.3,4c2.7,6.8,7.3,12.2,13.7,16c1.7,1,3.6,1.9,5.5,2.6h-25.2L160.5,176z M235.3,173.2l0.3-0.2l-0.1,0.2l-1.4,6.9
		h-14.3C225.4,178.4,230.6,176.1,235.3,173.2 M104.9,139.2c-0.8,4.2-2.7,7.4-5.6,9.7c-3,2.3-6.5,3.5-10.8,3.5h-3.7l4.7-23.5H96
		c5.6,0,7.3,2,7.9,2.6C104.5,132,106,133.8,104.9,139.2 M109.7,176.8c7.3-3.2,13.5-7.9,18.4-13.8c0.8-0.9,1.5-1.9,2.2-2.9l-2.7,13.2
		l-1.4,6.8H99.7C103.1,179.3,106.5,178.2,109.7,176.8"/>
	<polygon class="st1" points="442.2,268.9 34.4,268.9 51,187 458.8,187 	"/>
	<path class="st0" d="M83.5,252.6c-4-1.9-7.1-4.6-9.2-8.1C72.1,241,71,237,71,232.4c0-6,1.4-11.4,4.2-16.2
		c2.8-4.8,6.7-8.5,11.7-11.2c5-2.7,10.7-4,17.1-4c4.9,0,9.2,0.9,12.9,2.6c3.7,1.7,6.5,4.2,8.4,7.3l-10.7,8.5
		c-2.6-4.1-6.4-6.1-11.6-6.1c-3.4,0-6.3,0.8-8.8,2.4c-2.6,1.6-4.5,3.7-6,6.5c-1.4,2.8-2.1,5.9-2.1,9.3c0,3.6,1.2,6.4,3.5,8.5
		c2.3,2.1,5.4,3.2,9.4,3.2c5,0,9.3-2,12.8-6.1l8.8,8.6c-2.8,3.5-6.2,5.9-10,7.5s-8.2,2.3-13.1,2.3C92.1,255.5,87.5,254.6,83.5,252.6
		"/>
	<path class="st0" d="M161.1,244.3h-22.3l-6.1,10.2H117l33.7-52.5h14.6l12.7,52.5h-14.8L161.1,244.3z M158.8,233.3l-3.5-17l-10.1,17
		H158.8z"/>
	<path class="st0" d="M232.5,231.1c-2.6,3.5-6.1,6-10.7,7.6l8.9,15.8h-15.5l-7.8-14h-7.5l-2.8,14h-14.9l10.5-52.5h22.4
		c6.7,0,11.9,1.5,15.6,4.4c3.7,3,5.5,7,5.5,12.3C236.3,223.5,235,227.6,232.5,231.1 M219.1,215.3c-1.5-1.1-3.5-1.6-6.1-1.6h-7.8
		l-3.1,15.4h8.9c3.3,0,5.9-0.8,7.7-2.3c1.8-1.6,2.7-3.7,2.7-6.6C221.3,218,220.6,216.4,219.1,215.3"/>
	<polygon class="st0" points="294.6,226.1 312.2,254.5 295.6,254.5 283.5,235.6 276.7,241.7 274.2,254.5 259.5,254.5 270,202 
		284.7,202 280.4,223.4 304.1,202 321.6,202 	"/>
	<polygon class="st0" points="338.8,213.4 337,222.3 360.3,222.3 358.2,233.4 334.8,233.4 332.9,243 360.4,243 358,254.5 
		315.9,254.5 326.4,202 367.5,202 365.2,213.4 	"/>
	<polygon class="st0" points="397.7,235.9 394,254.5 379.2,254.5 382.9,235.5 369.6,202 384.5,202 392.8,222.9 409.6,202 424.6,202 
			"/>
	<path class="st1" d="M191.3,98.9h-12.4c2.2-10.7-4.7-19.4-15.4-19.4L166,67C183.5,67.1,194.9,81.3,191.3,98.9"/>
	<path class="st1" d="M207.4,98.9H195c4-19.6-8.6-35.5-28.2-35.5l2.5-12.4C195.8,51,212.8,72.5,207.4,98.9"/>
	<path class="st1" d="M67.6,106.5H100c7.5,0,13.9,1.4,19.1,4.2s8.9,6.8,11.1,11.9c2.1,5.1,2.5,11.1,1.1,18c-1.4,6.9-4.2,12.9-8.4,18
		c-4.2,5.1-9.5,9.1-15.9,11.9s-13.2,4.2-20.7,4.2H54L67.6,106.5z M88.5,159.3c5.9,0,10.9-1.7,15.1-5c4.2-3.3,6.9-7.9,8.1-13.7
		c1.2-5.8,0.3-10.4-2.5-13.7c-2.9-3.3-7.2-5-13.1-5H83.9l-7.5,37.4H88.5z"/>
	<polygon class="st1" points="146.9,113.3 166.3,113.3 153.7,174.6 134.4,174.6 	"/>
	<path class="st1" d="M220.5,139.1h17.1l-5.9,28.2c-4.5,2.8-9.4,4.9-14.8,6.4c-5.4,1.5-10.6,2.2-15.6,2.2c-7.2,0-13.3-1.5-18.3-4.5
		c-5.1-3-8.7-7.2-10.8-12.6c-2.1-5.4-2.5-11.5-1.1-18.3s4.3-12.9,8.7-18.3c4.4-5.4,9.8-9.6,16.2-12.6c6.4-3,13.3-4.5,20.6-4.5
		c6.4,0,11.9,1.1,16.5,3.2c4.6,2.1,8.2,5.2,10.8,9.3L229,128.7c-3.6-5.1-8.6-7.6-15-7.6c-5.9,0-10.9,1.8-15.3,5.3s-7.1,8.3-8.3,14.2
		c-0.8,3.8-0.7,7.1,0.4,10.1c1,3,2.8,5.3,5.4,6.9c2.6,1.7,5.8,2.5,9.5,2.5c3.7,0,7.3-0.7,10.9-2.2L220.5,139.1z"/>
	<polygon class="st1" points="256.7,106.5 276,106.5 261.7,174.6 242.4,174.6 	"/>
	<polygon class="st1" points="301.1,121.8 280.1,121.8 283.3,106.5 344.6,106.5 341.3,121.8 320.4,121.8 309.2,174.6 289.9,174.6 	
		"/>
	<path class="st1" d="M382.4,161.4h-28.8l-8.2,13.2h-19.7l44.7-68.2h19l15.5,68.2h-20.1L382.4,161.4z M379.8,147.2l-4.1-21.8
		l-13.5,21.8H379.8z"/>
	<polygon class="st1" points="425.2,106.5 444.5,106.5 433,159.4 465.6,159.4 462.2,174.6 410.4,174.6 	"/>
	<path class="st1" d="M157.4,108.4L157.4,108.4c-5.3,0-8.7-4.3-7.7-9.6s6.3-9.6,11.6-9.6c5.3,0,8.7,4.3,7.7,9.6
		C167.9,104.1,162.7,108.4,157.4,108.4"/>
</g>
</svg>
