<?xml version="1.0" encoding="utf-8"?>
<!-- Generator: Adobe Illustrator 27.1.0, SVG Export Plug-In . SVG Version: 6.00 Build 0)  -->
<svg version="1.1" id="Layer_1" xmlns="http://www.w3.org/2000/svg" xmlns:xlink="http://www.w3.org/1999/xlink" x="0px" y="0px"
	 viewBox="0 0 500 320" style="enable-background:new 0 0 500 320;" xml:space="preserve">
<style type="text/css">
	.st0{fill:#020202;}
	.st1{fill-rule:evenodd;clip-rule:evenodd;fill:#020202;}
	
		.st2{clip-path:url(#SVGID_00000134214644023885748860000009377422674837992354_);fill:url(#SVGID_00000018918240685765629210000013198227753517833364_);}
	
		.st3{clip-path:url(#SVGID_00000124856298788601965600000011923123246792546432_);fill:url(#SVGID_00000160881280030166647470000005103189541456450946_);}
</style>
<g>
	<g>
		<path class="st0" d="M48.7,160.3l-8.3,45.1h7.3c12.7,0.5,20.4-7,23-22.3c3.1-15.6-1.8-23.2-14.7-22.7
			C56.1,160.3,48.7,160.3,48.7,160.3z M12.6,223l17.2-80.9h30.4c29.6,0.3,41.6,13.8,36.2,40.7c-6,26.5-23.8,39.9-53.5,40.2
			C43,223,12.6,223,12.6,223z"/>
		<path class="st1" d="M110.8,165h21l-2.5,11.4c0,0,10.8-19.3,25.7-11l-7.9,17c0,0-14.4-4.9-18.8,10s-7.6,30.8-7.6,30.8H97.5
			L110.8,165z"/>
		<polygon class="st1" points="153.1,200.4 177.5,200.4 172.4,223.1 148,223.1 		"/>
		<path class="st0" d="M223.1,160.3l-8.3,45.1h7.3c12.7,0.5,20.4-7,23-22.3c3.1-15.6-1.8-23.2-14.7-22.7
			C230.4,160.3,223.1,160.3,223.1,160.3z M186.9,223l17.2-80.9h30.4c29.6,0.3,41.6,13.8,36.2,40.7c-6,26.5-23.8,39.9-53.5,40.2
			C217.4,223,186.9,223,186.9,223z"/>
		<path class="st1" d="M304.6,175.1c10,0,18,8.1,18,18s-8.1,18-18,18c-10,0-18-8.1-18-18C286.5,183.2,294.6,175.1,304.6,175.1
			 M304.8,161.8c17.5,0,31.8,14.2,31.8,31.8s-14.2,31.8-31.8,31.8c-17.5,0-31.8-14.2-31.8-31.8C273,176.1,287.3,161.8,304.8,161.8"
			/>
		<path class="st1" d="M373.6,175.1c10,0,18,8.1,18,18s-8.1,18-18,18s-18-8.1-18-18S363.7,175.1,373.6,175.1 M373.9,161.8
			c17.5,0,31.8,14.2,31.8,31.8s-14.2,31.8-31.8,31.8c-17.5,0-31.8-14.2-31.8-31.8C342.1,176.1,356.3,161.8,373.9,161.8"/>
		<path class="st1" d="M430.4,165h21l-2.5,11.4c0,0,10.8-19.3,25.7-11l-7.9,17c0,0-14.4-4.9-18.8,10c-4.4,14.9-7.6,30.8-7.6,30.8
			h-23.2L430.4,165z"/>
	</g>
	<g>
		<g>
			<defs>
				<path id="SVGID_1_" d="M411.6,167.9c0,0-4.5,1.4-3.3,4.4c1.1,3,5,10.1,4.9,17.5c-0.1,7.4-2.6,19.6-9.4,25.8l9.7,3.3l10.1-45.6
					c0,0-7.3-2.7-8.6-5.4L411.6,167.9L411.6,167.9z"/>
			</defs>
			<clipPath id="SVGID_00000077310117624505501840000017293033523658911879_">
				<use xlink:href="#SVGID_1_"  style="overflow:visible;"/>
			</clipPath>
			
				<radialGradient id="SVGID_00000005973250516565880640000012032701204862867598_" cx="-1703.2625" cy="-1536.7926" r="1.0288" gradientTransform="matrix(84.3167 0 0 84.3167 144038.7344 129735.8203)" gradientUnits="userSpaceOnUse">
				<stop  offset="0" style="stop-color:#E42529"/>
				<stop  offset="9.430000e-02" style="stop-color:#E73729"/>
				<stop  offset="0.2707" style="stop-color:#EA5B27"/>
				<stop  offset="0.51" style="stop-color:#F08521"/>
				<stop  offset="0.8004" style="stop-color:#FDBE19"/>
				<stop  offset="0.8065" style="stop-color:#FDC016"/>
				<stop  offset="0.9263" style="stop-color:#FFC815"/>
				<stop  offset="1" style="stop-color:#FFC815"/>
			</radialGradient>
			
				<rect x="403.8" y="167.9" style="clip-path:url(#SVGID_00000077310117624505501840000017293033523658911879_);fill:url(#SVGID_00000005973250516565880640000012032701204862867598_);" width="19.7" height="51"/>
		</g>
	</g>
	<g>
		<g>
			<defs>
				<path id="SVGID_00000147929165324329461450000017467590294234350268_" d="M361.9,157.4c0,0.4,0,0.8,0,1.1
					c3.4-1.6,22.3-9.7,38.8,6.6c5.2,0,8.6-1.8,8.6-5c-1.2-3.7-4.4-17.8,7.6-24.7c12-6.9,23.8-1.3,28.1,5.2
					c4.3,6.5,5.3,11.4,3.6,18.5c5.8-0.2,10.6-0.2,10.6-0.2s11.4-4,22.4,3.8l-12.4,26.7c0,0-12.1-5.8-16.2,4.6
					c-3,7.8-4.7,17.3-5.3,21.7c23.3-9.2,39.7-31.9,39.7-58.4c0-34.7-28.1-62.8-62.8-62.8S361.9,122.7,361.9,157.4"/>
			</defs>
			<clipPath id="SVGID_00000078748777373806963740000009191681471957819573_">
				<use xlink:href="#SVGID_00000147929165324329461450000017467590294234350268_"  style="overflow:visible;"/>
			</clipPath>
			
				<radialGradient id="SVGID_00000110428275637048921110000011990565696926049966_" cx="-1703.2645" cy="-1536.7887" r="1.0288" gradientTransform="matrix(84.3168 0 0 84.3168 144039.0938 129735.6406)" gradientUnits="userSpaceOnUse">
				<stop  offset="0" style="stop-color:#E42529"/>
				<stop  offset="9.430000e-02" style="stop-color:#E73729"/>
				<stop  offset="0.2707" style="stop-color:#EA5B27"/>
				<stop  offset="0.51" style="stop-color:#F08521"/>
				<stop  offset="0.8004" style="stop-color:#FDBE19"/>
				<stop  offset="0.8065" style="stop-color:#FDC016"/>
				<stop  offset="0.9263" style="stop-color:#FFC815"/>
				<stop  offset="1" style="stop-color:#FFC815"/>
			</radialGradient>
			
				<rect x="361.9" y="94.6" style="clip-path:url(#SVGID_00000078748777373806963740000009191681471957819573_);fill:url(#SVGID_00000110428275637048921110000011990565696926049966_);" width="125.6" height="121.2"/>
		</g>
	</g>
</g>
</svg>
