<svg width="88" height="88" viewBox="0 0 88 88" fill="none" xmlns="http://www.w3.org/2000/svg">
<path d="M25.6668 65.9937C17.6917 65.9493 13.3727 65.5956 10.5553 62.7782C7.3335 59.5564 7.3335 54.3709 7.3335 44L7.3335 29.3334C7.3335 18.9625 7.3335 13.777 10.5553 10.5552C13.7771 7.33338 18.9626 7.33338 29.3335 7.33338L58.6668 7.33337C69.0377 7.33337 74.2232 7.33337 77.445 10.5552C80.6668 13.777 80.6668 18.9625 80.6668 29.3334V44C80.6668 54.3709 80.6668 59.5564 77.445 62.7782C74.7688 65.4544 70.7378 65.9076 63.5056 65.9844L60.5002 65.9937" stroke="#1C274D" stroke-width="2"/>
<path d="M33 22H55" stroke="#1C274D" stroke-width="2" stroke-linecap="round"/>
<path d="M25.6665 34.8334H62.3332" stroke="#1C274D" stroke-width="2" stroke-linecap="round"/>
<path d="M39.9322 51.1331C42.2761 49.1356 45.7235 49.1356 48.0674 51.1331C49.0718 51.9891 50.3207 52.5063 51.6361 52.6113C54.7059 52.8563 57.1436 55.294 57.3886 58.3637C57.4935 59.6792 58.0108 60.9281 58.8668 61.9325C60.8642 64.2764 60.8642 67.7238 58.8668 70.0676C58.0108 71.0721 57.4935 72.3209 57.3886 73.6364C57.1436 76.7062 54.7059 79.1438 51.6361 79.3888C50.3207 79.4938 49.0718 80.0111 48.0674 80.867C45.7235 82.8645 42.2761 82.8645 39.9322 80.867C38.9278 80.0111 37.679 79.4938 36.3635 79.3888C33.2937 79.1438 30.856 76.7062 30.6111 73.6364C30.5061 72.3209 29.9888 71.0721 29.1329 70.0676C27.1354 67.7238 27.1354 64.2764 29.1329 61.9325C29.9888 60.9281 30.5061 59.6792 30.6111 58.3637C30.856 55.294 33.2937 52.8563 36.3635 52.6113C37.679 52.5063 38.9278 51.9891 39.9322 51.1331Z" stroke="#1C274D" stroke-width="2"/>
<path d="M38.5 66.7334L41.6429 69.6667L49.5 62.3334" stroke="#1C274D" stroke-width="2" stroke-linecap="round" stroke-linejoin="round"/>
</svg>
