<svg width="88" height="88" viewBox="0 0 88 88" fill="none" xmlns="http://www.w3.org/2000/svg">
<path d="M44.0007 58.6668C22.8809 58.6668 19.1395 37.6185 18.4768 20.9239C18.2924 16.2801 18.2002 13.9582 19.9445 11.8099C21.6888 9.6616 23.7765 9.30936 27.9518 8.60488C32.0734 7.90949 37.4611 7.3335 44.0007 7.3335C50.5404 7.3335 55.9281 7.90949 60.0496 8.60488C64.225 9.30936 66.3126 9.6616 68.0569 11.8099C69.8012 13.9582 69.7091 16.2801 69.5247 20.9239C68.8619 37.6185 65.1205 58.6668 44.0007 58.6668Z" stroke="#ffffff" stroke-width="2"/>
<path d="M44 58.6665V69.6665" stroke="#ffffff" stroke-width="2" stroke-linecap="round"/>
<path d="M56.8332 80.6667H31.1665L32.4103 74.4476C32.7531 72.7337 34.258 71.5 36.0058 71.5H51.9939C53.7417 71.5 55.2466 72.7337 55.5894 74.4476L56.8332 80.6667Z" stroke="#ffffff" stroke-width="2" stroke-linecap="round" stroke-linejoin="round"/>
<path d="M69.6665 18.3335L73.1448 19.4929C76.775 20.703 78.5901 21.308 79.6283 22.7485C80.6664 24.1889 80.6664 26.1022 80.6663 29.9287L80.6663 30.1947C80.6662 33.3507 80.6662 34.9288 79.9065 36.2198C79.1468 37.5109 77.7673 38.2773 75.0085 39.81L64.1665 45.8335" stroke="#ffffff" stroke-width="2"/>
<path d="M18.3333 18.3335L14.855 19.4929C11.2248 20.703 9.40969 21.308 8.37151 22.7485C7.33334 24.1889 7.33339 26.1022 7.3335 29.9287L7.33351 30.1947C7.33359 33.3507 7.33363 34.9288 8.09333 36.2198C8.85302 37.5109 10.2325 38.2773 12.9913 39.81L23.8333 45.8335" stroke="#ffffff" stroke-width="2"/>
<path d="M40.8685 22.0827C42.2618 19.5832 42.9585 18.3335 44 18.3335C45.0415 18.3335 45.7382 19.5832 47.1315 22.0827L47.492 22.7294C47.8879 23.4396 48.0859 23.7948 48.3946 24.0291C48.7032 24.2634 49.0877 24.3504 49.8565 24.5243L50.5565 24.6827C53.2622 25.2949 54.615 25.601 54.9368 26.636C55.2587 27.671 54.3364 28.7495 52.4919 30.9064L52.0147 31.4644C51.4905 32.0774 51.2285 32.3838 51.1106 32.763C50.9926 33.1421 51.0323 33.551 51.1115 34.3688L51.1837 35.1133C51.4625 37.9912 51.602 39.4301 50.7593 40.0697C49.9167 40.7094 48.6501 40.1262 46.1168 38.9598L45.4614 38.658C44.7415 38.3266 44.3815 38.1608 44 38.1608C43.6185 38.1608 43.2585 38.3266 42.5386 38.658L41.8832 38.9598C39.3499 40.1262 38.0833 40.7094 37.2407 40.0697C36.398 39.4301 36.5375 37.9912 36.8163 35.1133L36.8885 34.3688C36.9677 33.551 37.0074 33.1421 36.8894 32.763C36.7715 32.3838 36.5095 32.0774 35.9853 31.4644L35.5081 30.9064C33.6636 28.7495 32.7413 27.671 33.0632 26.636C33.385 25.601 34.7378 25.2949 37.4435 24.6827L38.1435 24.5243C38.9123 24.3504 39.2968 24.2634 39.6054 24.0291C39.9141 23.7948 40.1121 23.4396 40.508 22.7294L40.8685 22.0827Z" stroke="#ffffff" stroke-width="2"/>
<path d="M66 80.6665H22" stroke="#ffffff" stroke-width="2" stroke-linecap="round"/>
</svg>
