<svg width="88" height="88" viewBox="0 0 88 88" fill="none" xmlns="http://www.w3.org/2000/svg">
<circle cx="44" cy="22" r="14.6667" stroke="#1C274C" stroke-width="2"/>
<path d="M66 33C72.0751 33 77 28.8959 77 23.8333C77 18.7707 72.0751 14.6666 66 14.6666" stroke="#1C274C" stroke-width="2" stroke-linecap="round"/>
<path d="M22 33C15.9249 33 11 28.8959 11 23.8333C11 18.7707 15.9249 14.6666 22 14.6666" stroke="#1C274C" stroke-width="2" stroke-linecap="round"/>
<ellipse cx="44" cy="62.3333" rx="22" ry="14.6667" stroke="#1C274C" stroke-width="2"/>
<path d="M73.3334 69.6667C79.7656 68.2562 84.3334 64.6839 84.3334 60.5C84.3334 56.3161 79.7656 52.7439 73.3334 51.3334" stroke="#1C274C" stroke-width="2" stroke-linecap="round"/>
<path d="M14.6666 69.6667C8.23439 68.2562 3.66663 64.6839 3.66663 60.5C3.66663 56.3161 8.23439 52.7439 14.6666 51.3334" stroke="#1C274C" stroke-width="2" stroke-linecap="round"/>
</svg>
