<svg width="88" height="88" viewBox="0 0 88 88" fill="none" xmlns="http://www.w3.org/2000/svg">
<path d="M18.3334 31.2204C18.3334 18.0279 29.8247 7.33337 44 7.33337C58.1753 7.33337 69.6667 18.0279 69.6667 31.2204C69.6667 44.3094 61.4748 59.5831 48.6936 65.0451C45.7141 66.3184 42.286 66.3184 39.3065 65.0451C26.5253 59.5831 18.3334 44.3094 18.3334 31.2204Z" stroke="white" stroke-width="2"/>
<path d="M51.3333 33C51.3333 37.05 48.05 40.3333 44 40.3333C39.9499 40.3333 36.6666 37.05 36.6666 33C36.6666 28.9499 39.9499 25.6666 44 25.6666C48.05 25.6666 51.3333 28.9499 51.3333 33Z" stroke="white" stroke-width="2"/>
<path d="M76.8553 56.8334C79.2949 59.0425 80.6667 61.5325 80.6667 64.1667C80.6667 73.2794 64.2505 80.6667 44 80.6667C23.7496 80.6667 7.33337 73.2794 7.33337 64.1667C7.33337 61.5325 8.70514 59.0425 11.1448 56.8334" stroke="white" stroke-width="2" stroke-linecap="round"/>
</svg>
