<svg width="282" height="282" viewBox="0 0 282 282" fill="none" xmlns="http://www.w3.org/2000/svg">
<rect width="282" height="282" fill="white"/>
<path d="M16 16H24.6207V24.6207H16V16ZM24.6207 16H33.2414V24.6207H24.6207V16ZM33.2414 16H41.8621V24.6207H33.2414V16ZM41.8621 16H50.4828V24.6207H41.8621V16ZM50.4828 16H59.1034V24.6207H50.4828V16ZM59.1034 16H67.7241V24.6207H59.1034V16ZM67.7241 16H76.3448V24.6207H67.7241V16ZM110.828 16H119.448V24.6207H110.828V16ZM119.448 16H128.069V24.6207H119.448V16ZM128.069 16H136.69V24.6207H128.069V16ZM205.655 16H214.276V24.6207H205.655V16ZM214.276 16H222.897V24.6207H214.276V16ZM222.897 16H231.517V24.6207H222.897V16ZM231.517 16H240.138V24.6207H231.517V16ZM240.138 16H248.759V24.6207H240.138V16ZM248.759 16H257.379V24.6207H248.759V16ZM257.379 16H266V24.6207H257.379V16ZM16 24.6207H24.6207V33.2414H16V24.6207ZM67.7241 24.6207H76.3448V33.2414H67.7241V24.6207ZM93.5862 24.6207H102.207V33.2414H93.5862V24.6207ZM102.207 24.6207H110.828V33.2414H102.207V24.6207ZM136.69 24.6207H145.31V33.2414H136.69V24.6207ZM153.931 24.6207H162.552V33.2414H153.931V24.6207ZM171.172 24.6207H179.793V33.2414H171.172V24.6207ZM179.793 24.6207H188.414V33.2414H179.793V24.6207ZM205.655 24.6207H214.276V33.2414H205.655V24.6207ZM257.379 24.6207H266V33.2414H257.379V24.6207ZM16 33.2414H24.6207V41.8621H16V33.2414ZM33.2414 33.2414H41.8621V41.8621H33.2414V33.2414ZM41.8621 33.2414H50.4828V41.8621H41.8621V33.2414ZM50.4828 33.2414H59.1034V41.8621H50.4828V33.2414ZM67.7241 33.2414H76.3448V41.8621H67.7241V33.2414ZM84.9655 33.2414H93.5862V41.8621H84.9655V33.2414ZM93.5862 33.2414H102.207V41.8621H93.5862V33.2414ZM102.207 33.2414H110.828V41.8621H102.207V33.2414ZM119.448 33.2414H128.069V41.8621H119.448V33.2414ZM145.31 33.2414H153.931V41.8621H145.31V33.2414ZM162.552 33.2414H171.172V41.8621H162.552V33.2414ZM171.172 33.2414H179.793V41.8621H171.172V33.2414ZM179.793 33.2414H188.414V41.8621H179.793V33.2414ZM188.414 33.2414H197.034V41.8621H188.414V33.2414ZM205.655 33.2414H214.276V41.8621H205.655V33.2414ZM222.897 33.2414H231.517V41.8621H222.897V33.2414ZM231.517 33.2414H240.138V41.8621H231.517V33.2414ZM240.138 33.2414H248.759V41.8621H240.138V33.2414ZM257.379 33.2414H266V41.8621H257.379V33.2414ZM16 41.8621H24.6207V50.4828H16V41.8621ZM33.2414 41.8621H41.8621V50.4828H33.2414V41.8621ZM41.8621 41.8621H50.4828V50.4828H41.8621V41.8621ZM50.4828 41.8621H59.1034V50.4828H50.4828V41.8621ZM67.7241 41.8621H76.3448V50.4828H67.7241V41.8621ZM110.828 41.8621H119.448V50.4828H110.828V41.8621ZM128.069 41.8621H136.69V50.4828H128.069V41.8621ZM153.931 41.8621H162.552V50.4828H153.931V41.8621ZM171.172 41.8621H179.793V50.4828H171.172V41.8621ZM179.793 41.8621H188.414V50.4828H179.793V41.8621ZM205.655 41.8621H214.276V50.4828H205.655V41.8621ZM222.897 41.8621H231.517V50.4828H222.897V41.8621ZM231.517 41.8621H240.138V50.4828H231.517V41.8621ZM240.138 41.8621H248.759V50.4828H240.138V41.8621ZM257.379 41.8621H266V50.4828H257.379V41.8621ZM16 50.4828H24.6207V59.1034H16V50.4828ZM33.2414 50.4828H41.8621V59.1034H33.2414V50.4828ZM41.8621 50.4828H50.4828V59.1034H41.8621V50.4828ZM50.4828 50.4828H59.1034V59.1034H50.4828V50.4828ZM67.7241 50.4828H76.3448V59.1034H67.7241V50.4828ZM84.9655 50.4828H93.5862V59.1034H84.9655V50.4828ZM93.5862 50.4828H102.207V59.1034H93.5862V50.4828ZM119.448 50.4828H128.069V59.1034H119.448V50.4828ZM205.655 50.4828H214.276V59.1034H205.655V50.4828ZM222.897 50.4828H231.517V59.1034H222.897V50.4828ZM231.517 50.4828H240.138V59.1034H231.517V50.4828ZM240.138 50.4828H248.759V59.1034H240.138V50.4828ZM257.379 50.4828H266V59.1034H257.379V50.4828ZM16 59.1034H24.6207V67.7241H16V59.1034ZM67.7241 59.1034H76.3448V67.7241H67.7241V59.1034ZM84.9655 59.1034H93.5862V67.7241H84.9655V59.1034ZM93.5862 59.1034H102.207V67.7241H93.5862V59.1034ZM102.207 59.1034H110.828V67.7241H102.207V59.1034ZM145.31 59.1034H153.931V67.7241H145.31V59.1034ZM153.931 59.1034H162.552V67.7241H153.931V59.1034ZM162.552 59.1034H171.172V67.7241H162.552V59.1034ZM171.172 59.1034H179.793V67.7241H171.172V59.1034ZM179.793 59.1034H188.414V67.7241H179.793V59.1034ZM205.655 59.1034H214.276V67.7241H205.655V59.1034ZM257.379 59.1034H266V67.7241H257.379V59.1034ZM16 67.7241H24.6207V76.3448H16V67.7241ZM24.6207 67.7241H33.2414V76.3448H24.6207V67.7241ZM33.2414 67.7241H41.8621V76.3448H33.2414V67.7241ZM41.8621 67.7241H50.4828V76.3448H41.8621V67.7241ZM50.4828 67.7241H59.1034V76.3448H50.4828V67.7241ZM59.1034 67.7241H67.7241V76.3448H59.1034V67.7241ZM67.7241 67.7241H76.3448V76.3448H67.7241V67.7241ZM84.9655 67.7241H93.5862V76.3448H84.9655V67.7241ZM102.207 67.7241H110.828V76.3448H102.207V67.7241ZM119.448 67.7241H128.069V76.3448H119.448V67.7241ZM136.69 67.7241H145.31V76.3448H136.69V67.7241ZM153.931 67.7241H162.552V76.3448H153.931V67.7241ZM171.172 67.7241H179.793V76.3448H171.172V67.7241ZM188.414 67.7241H197.034V76.3448H188.414V67.7241ZM205.655 67.7241H214.276V76.3448H205.655V67.7241ZM214.276 67.7241H222.897V76.3448H214.276V67.7241ZM222.897 67.7241H231.517V76.3448H222.897V67.7241ZM231.517 67.7241H240.138V76.3448H231.517V67.7241ZM240.138 67.7241H248.759V76.3448H240.138V67.7241ZM248.759 67.7241H257.379V76.3448H248.759V67.7241ZM257.379 67.7241H266V76.3448H257.379V67.7241ZM102.207 76.3448H110.828V84.9655H102.207V76.3448ZM128.069 76.3448H136.69V84.9655H128.069V76.3448ZM136.69 76.3448H145.31V84.9655H136.69V76.3448ZM145.31 76.3448H153.931V84.9655H145.31V76.3448ZM153.931 76.3448H162.552V84.9655H153.931V76.3448ZM162.552 76.3448H171.172V84.9655H162.552V76.3448ZM171.172 76.3448H179.793V84.9655H171.172V76.3448ZM188.414 76.3448H197.034V84.9655H188.414V76.3448ZM24.6207 84.9655H33.2414V93.5862H24.6207V84.9655ZM50.4828 84.9655H59.1034V93.5862H50.4828V84.9655ZM67.7241 84.9655H76.3448V93.5862H67.7241V84.9655ZM84.9655 84.9655H93.5862V93.5862H84.9655V84.9655ZM93.5862 84.9655H102.207V93.5862H93.5862V84.9655ZM110.828 84.9655H119.448V93.5862H110.828V84.9655ZM128.069 84.9655H136.69V93.5862H128.069V84.9655ZM145.31 84.9655H153.931V93.5862H145.31V84.9655ZM171.172 84.9655H179.793V93.5862H171.172V84.9655ZM188.414 84.9655H197.034V93.5862H188.414V84.9655ZM197.034 84.9655H205.655V93.5862H197.034V84.9655ZM214.276 84.9655H222.897V93.5862H214.276V84.9655ZM222.897 84.9655H231.517V93.5862H222.897V84.9655ZM240.138 84.9655H248.759V93.5862H240.138V84.9655ZM24.6207 93.5862H33.2414V102.207H24.6207V93.5862ZM41.8621 93.5862H50.4828V102.207H41.8621V93.5862ZM50.4828 93.5862H59.1034V102.207H50.4828V93.5862ZM76.3448 93.5862H84.9655V102.207H76.3448V93.5862ZM110.828 93.5862H119.448V102.207H110.828V93.5862ZM136.69 93.5862H145.31V102.207H136.69V93.5862ZM153.931 93.5862H162.552V102.207H153.931V93.5862ZM171.172 93.5862H179.793V102.207H171.172V93.5862ZM205.655 93.5862H214.276V102.207H205.655V93.5862ZM214.276 93.5862H222.897V102.207H214.276V93.5862ZM222.897 93.5862H231.517V102.207H222.897V93.5862ZM248.759 93.5862H257.379V102.207H248.759V93.5862ZM257.379 93.5862H266V102.207H257.379V93.5862ZM16 102.207H24.6207V110.828H16V102.207ZM24.6207 102.207H33.2414V110.828H24.6207V102.207ZM33.2414 102.207H41.8621V110.828H33.2414V102.207ZM41.8621 102.207H50.4828V110.828H41.8621V102.207ZM59.1034 102.207H67.7241V110.828H59.1034V102.207ZM67.7241 102.207H76.3448V110.828H67.7241V102.207ZM76.3448 102.207H84.9655V110.828H76.3448V102.207ZM84.9655 102.207H93.5862V110.828H84.9655V102.207ZM93.5862 102.207H102.207V110.828H93.5862V102.207ZM110.828 102.207H119.448V110.828H110.828V102.207ZM128.069 102.207H136.69V110.828H128.069V102.207ZM136.69 102.207H145.31V110.828H136.69V102.207ZM153.931 102.207H162.552V110.828H153.931V102.207ZM188.414 102.207H197.034V110.828H188.414V102.207ZM197.034 102.207H205.655V110.828H197.034V102.207ZM222.897 102.207H231.517V110.828H222.897V102.207ZM231.517 102.207H240.138V110.828H231.517V102.207ZM240.138 102.207H248.759V110.828H240.138V102.207ZM257.379 102.207H266V110.828H257.379V102.207ZM16 110.828H24.6207V119.448H16V110.828ZM33.2414 110.828H41.8621V119.448H33.2414V110.828ZM76.3448 110.828H84.9655V119.448H76.3448V110.828ZM93.5862 110.828H102.207V119.448H93.5862V110.828ZM102.207 110.828H110.828V119.448H102.207V110.828ZM110.828 110.828H119.448V119.448H110.828V110.828ZM136.69 110.828H145.31V119.448H136.69V110.828ZM153.931 110.828H162.552V119.448H153.931V110.828ZM162.552 110.828H171.172V119.448H162.552V110.828ZM171.172 110.828H179.793V119.448H171.172V110.828ZM197.034 110.828H205.655V119.448H197.034V110.828ZM222.897 110.828H231.517V119.448H222.897V110.828ZM231.517 110.828H240.138V119.448H231.517V110.828ZM248.759 110.828H257.379V119.448H248.759V110.828ZM257.379 110.828H266V119.448H257.379V110.828ZM24.6207 119.448H33.2414V128.069H24.6207V119.448ZM33.2414 119.448H41.8621V128.069H33.2414V119.448ZM41.8621 119.448H50.4828V128.069H41.8621V119.448ZM67.7241 119.448H76.3448V128.069H67.7241V119.448ZM76.3448 119.448H84.9655V128.069H76.3448V119.448ZM84.9655 119.448H93.5862V128.069H84.9655V119.448ZM102.207 119.448H110.828V128.069H102.207V119.448ZM110.828 119.448H119.448V128.069H110.828V119.448ZM128.069 119.448H136.69V128.069H128.069V119.448ZM145.31 119.448H153.931V128.069H145.31V119.448ZM162.552 119.448H171.172V128.069H162.552V119.448ZM171.172 119.448H179.793V128.069H171.172V119.448ZM188.414 119.448H197.034V128.069H188.414V119.448ZM214.276 119.448H222.897V128.069H214.276V119.448ZM257.379 119.448H266V128.069H257.379V119.448ZM24.6207 128.069H33.2414V136.69H24.6207V128.069ZM33.2414 128.069H41.8621V136.69H33.2414V128.069ZM41.8621 128.069H50.4828V136.69H41.8621V128.069ZM50.4828 128.069H59.1034V136.69H50.4828V128.069ZM84.9655 128.069H93.5862V136.69H84.9655V128.069ZM93.5862 128.069H102.207V136.69H93.5862V128.069ZM128.069 128.069H136.69V136.69H128.069V128.069ZM162.552 128.069H171.172V136.69H162.552V128.069ZM171.172 128.069H179.793V136.69H171.172V128.069ZM205.655 128.069H214.276V136.69H205.655V128.069ZM222.897 128.069H231.517V136.69H222.897V128.069ZM240.138 128.069H248.759V136.69H240.138V128.069ZM257.379 128.069H266V136.69H257.379V128.069ZM67.7241 136.69H76.3448V145.31H67.7241V136.69ZM84.9655 136.69H93.5862V145.31H84.9655V136.69ZM102.207 136.69H110.828V145.31H102.207V136.69ZM128.069 136.69H136.69V145.31H128.069V136.69ZM153.931 136.69H162.552V145.31H153.931V136.69ZM171.172 136.69H179.793V145.31H171.172V136.69ZM197.034 136.69H205.655V145.31H197.034V136.69ZM205.655 136.69H214.276V145.31H205.655V136.69ZM222.897 136.69H231.517V145.31H222.897V136.69ZM257.379 136.69H266V145.31H257.379V136.69ZM24.6207 145.31H33.2414V153.931H24.6207V145.31ZM84.9655 145.31H93.5862V153.931H84.9655V145.31ZM102.207 145.31H110.828V153.931H102.207V145.31ZM110.828 145.31H119.448V153.931H110.828V145.31ZM119.448 145.31H128.069V153.931H119.448V145.31ZM145.31 145.31H153.931V153.931H145.31V145.31ZM153.931 145.31H162.552V153.931H153.931V145.31ZM188.414 145.31H197.034V153.931H188.414V145.31ZM205.655 145.31H214.276V153.931H205.655V145.31ZM214.276 145.31H222.897V153.931H214.276V145.31ZM231.517 145.31H240.138V153.931H231.517V145.31ZM248.759 145.31H257.379V153.931H248.759V145.31ZM257.379 145.31H266V153.931H257.379V145.31ZM33.2414 153.931H41.8621V162.552H33.2414V153.931ZM41.8621 153.931H50.4828V162.552H41.8621V153.931ZM59.1034 153.931H67.7241V162.552H59.1034V153.931ZM67.7241 153.931H76.3448V162.552H67.7241V153.931ZM84.9655 153.931H93.5862V162.552H84.9655V153.931ZM110.828 153.931H119.448V162.552H110.828V153.931ZM119.448 153.931H128.069V162.552H119.448V153.931ZM145.31 153.931H153.931V162.552H145.31V153.931ZM153.931 153.931H162.552V162.552H153.931V153.931ZM179.793 153.931H188.414V162.552H179.793V153.931ZM188.414 153.931H197.034V162.552H188.414V153.931ZM197.034 153.931H205.655V162.552H197.034V153.931ZM248.759 153.931H257.379V162.552H248.759V153.931ZM16 162.552H24.6207V171.172H16V162.552ZM33.2414 162.552H41.8621V171.172H33.2414V162.552ZM41.8621 162.552H50.4828V171.172H41.8621V162.552ZM84.9655 162.552H93.5862V171.172H84.9655V162.552ZM93.5862 162.552H102.207V171.172H93.5862V162.552ZM110.828 162.552H119.448V171.172H110.828V162.552ZM128.069 162.552H136.69V171.172H128.069V162.552ZM136.69 162.552H145.31V171.172H136.69V162.552ZM162.552 162.552H171.172V171.172H162.552V162.552ZM171.172 162.552H179.793V171.172H171.172V162.552ZM205.655 162.552H214.276V171.172H205.655V162.552ZM214.276 162.552H222.897V171.172H214.276V162.552ZM222.897 162.552H231.517V171.172H222.897V162.552ZM240.138 162.552H248.759V171.172H240.138V162.552ZM257.379 162.552H266V171.172H257.379V162.552ZM33.2414 171.172H41.8621V179.793H33.2414V171.172ZM41.8621 171.172H50.4828V179.793H41.8621V171.172ZM59.1034 171.172H67.7241V179.793H59.1034V171.172ZM67.7241 171.172H76.3448V179.793H67.7241V171.172ZM76.3448 171.172H84.9655V179.793H76.3448V171.172ZM110.828 171.172H119.448V179.793H110.828V171.172ZM145.31 171.172H153.931V179.793H145.31V171.172ZM171.172 171.172H179.793V179.793H171.172V171.172ZM188.414 171.172H197.034V179.793H188.414V171.172ZM214.276 171.172H222.897V179.793H214.276V171.172ZM231.517 171.172H240.138V179.793H231.517V171.172ZM240.138 171.172H248.759V179.793H240.138V171.172ZM257.379 171.172H266V179.793H257.379V171.172ZM33.2414 179.793H41.8621V188.414H33.2414V179.793ZM41.8621 179.793H50.4828V188.414H41.8621V179.793ZM50.4828 179.793H59.1034V188.414H50.4828V179.793ZM59.1034 179.793H67.7241V188.414H59.1034V179.793ZM76.3448 179.793H84.9655V188.414H76.3448V179.793ZM84.9655 179.793H93.5862V188.414H84.9655V179.793ZM93.5862 179.793H102.207V188.414H93.5862V179.793ZM136.69 179.793H145.31V188.414H136.69V179.793ZM145.31 179.793H153.931V188.414H145.31V179.793ZM153.931 179.793H162.552V188.414H153.931V179.793ZM162.552 179.793H171.172V188.414H162.552V179.793ZM188.414 179.793H197.034V188.414H188.414V179.793ZM222.897 179.793H231.517V188.414H222.897V179.793ZM231.517 179.793H240.138V188.414H231.517V179.793ZM248.759 179.793H257.379V188.414H248.759V179.793ZM257.379 179.793H266V188.414H257.379V179.793ZM16 188.414H24.6207V197.034H16V188.414ZM24.6207 188.414H33.2414V197.034H24.6207V188.414ZM33.2414 188.414H41.8621V197.034H33.2414V188.414ZM50.4828 188.414H59.1034V197.034H50.4828V188.414ZM67.7241 188.414H76.3448V197.034H67.7241V188.414ZM93.5862 188.414H102.207V197.034H93.5862V188.414ZM102.207 188.414H110.828V197.034H102.207V188.414ZM110.828 188.414H119.448V197.034H110.828V188.414ZM162.552 188.414H171.172V197.034H162.552V188.414ZM188.414 188.414H197.034V197.034H188.414V188.414ZM197.034 188.414H205.655V197.034H197.034V188.414ZM205.655 188.414H214.276V197.034H205.655V188.414ZM214.276 188.414H222.897V197.034H214.276V188.414ZM222.897 188.414H231.517V197.034H222.897V188.414ZM231.517 188.414H240.138V197.034H231.517V188.414ZM248.759 188.414H257.379V197.034H248.759V188.414ZM257.379 188.414H266V197.034H257.379V188.414ZM84.9655 197.034H93.5862V205.655H84.9655V197.034ZM102.207 197.034H110.828V205.655H102.207V197.034ZM119.448 197.034H128.069V205.655H119.448V197.034ZM128.069 197.034H136.69V205.655H128.069V197.034ZM145.31 197.034H153.931V205.655H145.31V197.034ZM188.414 197.034H197.034V205.655H188.414V197.034ZM222.897 197.034H231.517V205.655H222.897V197.034ZM240.138 197.034H248.759V205.655H240.138V197.034ZM257.379 197.034H266V205.655H257.379V197.034ZM16 205.655H24.6207V214.276H16V205.655ZM24.6207 205.655H33.2414V214.276H24.6207V205.655ZM33.2414 205.655H41.8621V214.276H33.2414V205.655ZM41.8621 205.655H50.4828V214.276H41.8621V205.655ZM50.4828 205.655H59.1034V214.276H50.4828V205.655ZM59.1034 205.655H67.7241V214.276H59.1034V205.655ZM67.7241 205.655H76.3448V214.276H67.7241V205.655ZM93.5862 205.655H102.207V214.276H93.5862V205.655ZM119.448 205.655H128.069V214.276H119.448V205.655ZM145.31 205.655H153.931V214.276H145.31V205.655ZM153.931 205.655H162.552V214.276H153.931V205.655ZM162.552 205.655H171.172V214.276H162.552V205.655ZM179.793 205.655H188.414V214.276H179.793V205.655ZM188.414 205.655H197.034V214.276H188.414V205.655ZM205.655 205.655H214.276V214.276H205.655V205.655ZM222.897 205.655H231.517V214.276H222.897V205.655ZM257.379 205.655H266V214.276H257.379V205.655ZM16 214.276H24.6207V222.897H16V214.276ZM67.7241 214.276H76.3448V222.897H67.7241V214.276ZM102.207 214.276H110.828V222.897H102.207V214.276ZM110.828 214.276H119.448V222.897H110.828V214.276ZM119.448 214.276H128.069V222.897H119.448V214.276ZM128.069 214.276H136.69V222.897H128.069V214.276ZM162.552 214.276H171.172V222.897H162.552V214.276ZM171.172 214.276H179.793V222.897H171.172V214.276ZM179.793 214.276H188.414V222.897H179.793V214.276ZM188.414 214.276H197.034V222.897H188.414V214.276ZM222.897 214.276H231.517V222.897H222.897V214.276ZM231.517 214.276H240.138V222.897H231.517V214.276ZM16 222.897H24.6207V231.517H16V222.897ZM33.2414 222.897H41.8621V231.517H33.2414V222.897ZM41.8621 222.897H50.4828V231.517H41.8621V222.897ZM50.4828 222.897H59.1034V231.517H50.4828V222.897ZM67.7241 222.897H76.3448V231.517H67.7241V222.897ZM84.9655 222.897H93.5862V231.517H84.9655V222.897ZM110.828 222.897H119.448V231.517H110.828V222.897ZM128.069 222.897H136.69V231.517H128.069V222.897ZM145.31 222.897H153.931V231.517H145.31V222.897ZM171.172 222.897H179.793V231.517H171.172V222.897ZM179.793 222.897H188.414V231.517H179.793V222.897ZM188.414 222.897H197.034V231.517H188.414V222.897ZM197.034 222.897H205.655V231.517H197.034V222.897ZM205.655 222.897H214.276V231.517H205.655V222.897ZM214.276 222.897H222.897V231.517H214.276V222.897ZM222.897 222.897H231.517V231.517H222.897V222.897ZM248.759 222.897H257.379V231.517H248.759V222.897ZM257.379 222.897H266V231.517H257.379V222.897ZM16 231.517H24.6207V240.138H16V231.517ZM33.2414 231.517H41.8621V240.138H33.2414V231.517ZM41.8621 231.517H50.4828V240.138H41.8621V231.517ZM50.4828 231.517H59.1034V240.138H50.4828V231.517ZM67.7241 231.517H76.3448V240.138H67.7241V231.517ZM93.5862 231.517H102.207V240.138H93.5862V231.517ZM119.448 231.517H128.069V240.138H119.448V231.517ZM153.931 231.517H162.552V240.138H153.931V231.517ZM214.276 231.517H222.897V240.138H214.276V231.517ZM248.759 231.517H257.379V240.138H248.759V231.517ZM16 240.138H24.6207V248.759H16V240.138ZM33.2414 240.138H41.8621V248.759H33.2414V240.138ZM41.8621 240.138H50.4828V248.759H41.8621V240.138ZM50.4828 240.138H59.1034V248.759H50.4828V240.138ZM67.7241 240.138H76.3448V248.759H67.7241V240.138ZM102.207 240.138H110.828V248.759H102.207V240.138ZM119.448 240.138H128.069V248.759H119.448V240.138ZM128.069 240.138H136.69V248.759H128.069V240.138ZM153.931 240.138H162.552V248.759H153.931V240.138ZM171.172 240.138H179.793V248.759H171.172V240.138ZM179.793 240.138H188.414V248.759H179.793V240.138ZM188.414 240.138H197.034V248.759H188.414V240.138ZM197.034 240.138H205.655V248.759H197.034V240.138ZM240.138 240.138H248.759V248.759H240.138V240.138ZM248.759 240.138H257.379V248.759H248.759V240.138ZM257.379 240.138H266V248.759H257.379V240.138ZM16 248.759H24.6207V257.379H16V248.759ZM67.7241 248.759H76.3448V257.379H67.7241V248.759ZM84.9655 248.759H93.5862V257.379H84.9655V248.759ZM93.5862 248.759H102.207V257.379H93.5862V248.759ZM162.552 248.759H171.172V257.379H162.552V248.759ZM188.414 248.759H197.034V257.379H188.414V248.759ZM205.655 248.759H214.276V257.379H205.655V248.759ZM214.276 248.759H222.897V257.379H214.276V248.759ZM231.517 248.759H240.138V257.379H231.517V248.759ZM248.759 248.759H257.379V257.379H248.759V248.759ZM257.379 248.759H266V257.379H257.379V248.759ZM16 257.379H24.6207V266H16V257.379ZM24.6207 257.379H33.2414V266H24.6207V257.379ZM33.2414 257.379H41.8621V266H33.2414V257.379ZM41.8621 257.379H50.4828V266H41.8621V257.379ZM50.4828 257.379H59.1034V266H50.4828V257.379ZM59.1034 257.379H67.7241V266H59.1034V257.379ZM67.7241 257.379H76.3448V266H67.7241V257.379ZM93.5862 257.379H102.207V266H93.5862V257.379ZM128.069 257.379H136.69V266H128.069V257.379ZM136.69 257.379H145.31V266H136.69V257.379ZM145.31 257.379H153.931V266H145.31V257.379ZM162.552 257.379H171.172V266H162.552V257.379ZM179.793 257.379H188.414V266H179.793V257.379ZM188.414 257.379H197.034V266H188.414V257.379ZM222.897 257.379H231.517V266H222.897V257.379ZM231.517 257.379H240.138V266H231.517V257.379ZM248.759 257.379H257.379V266H248.759V257.379Z" fill="black"/>
</svg>
