<?xml version="1.0" encoding="utf-8"?>
<!-- Generator: Adobe Illustrator 27.1.0, SVG Export Plug-In . SVG Version: 6.00 Build 0)  -->
<svg version="1.1" id="Layer_1" xmlns="http://www.w3.org/2000/svg" xmlns:xlink="http://www.w3.org/1999/xlink" x="0px" y="0px"
	 viewBox="0 0 315.4 158.1" style="enable-background:new 0 0 315.4 158.1;" xml:space="preserve">
<style type="text/css">
	.st0{fill:#FFFFFF;}
	.st1{fill:#E82C2B;}
</style>
<g>
	<g>
		<g>
			<g>
				<g>
					<g>
						<g>
							<path class="st0" d="M177.9,53.8l4.4,0l1.5,0c1.2-0.4,2.5-0.7,3.7-1.1c6.6-2.1,13.1-4.5,19.8-5.9c4.9-1,9.8-1.5,14.8-1.7
								l1.5-4.1l-47.8-0.2c-4.7,0-9,1.7-12.4,4.5c-2.6,2.2-4.8,5-6,8.3l0,0l-2.3,6.2c7.4-1,14.8-2.5,22.1-4.3L177.9,53.8z"/>
							<path class="st0" d="M137.5,108.3l6.7,0c8.3,0,15.6-5.1,18.5-12.8l1.7-4.6c-7.1,1.3-14.3,2.3-21.6,2.9L137.5,108.3z"/>
							<path class="st0" d="M215.1,64.5l1.1-2.9L219,54l3.2-8.8c-5,0.3-9.9,0.7-14.8,1.7c-6.7,1.4-13.2,3.8-19.8,5.9
								c-1.2,0.4-2.5,0.7-3.7,1.1l14.6,0.1l-2.2,6l-0.6,1.6l-20.6-0.1l2.1-5.8c-7.3,1.9-14.6,3.3-22.1,4.3l-0.5,1.4l-4.7,12.9
								l-1.4,3.9l-5.7,15.5c7.2-0.6,14.4-1.5,21.6-2.9l3.1-8.6l2.9-8l20.6,0.1l-4,10.9c0.2,0,0.3-0.1,0.5-0.1
								c6.6-2.1,13.1-4.5,19.8-5.9c0.8-0.2,1.7-0.2,2.6-0.4l1.6-4.4L215.1,64.5z"/>
							<path class="st0" d="M187.5,85.2c-0.2,0-0.3,0.1-0.5,0.1l-2,5.4l-6.5,17.8l6.7,0c7.5,0,14.3-4.3,17.6-10.9
								c0.3-0.6,0.6-1.3,0.9-1.9l6.1-16.7c-0.9,0.1-1.7,0.2-2.6,0.4C200.5,80.7,194,83.1,187.5,85.2L187.5,85.2z"/>
							<path class="st0" d="M93.2,27.7l181.4,0.6c10.9,0,20.6-6.7,24.4-16.9l-181.4-0.6C106.7,10.8,97,17.5,93.2,27.7L93.2,27.7z"/>
							<path class="st0" d="M277.3,74.7l4.8-12.9l-40.3-0.1l-0.8,0l2.8-7.6l15,0.1l12.3,0c1.8,0,3.5-0.3,5.2-0.7
								c-1.5-0.3-3-0.6-4.4-1c-5.4-1.5-10.6-3.5-16-4.8c-8.4-2.1-17-2.7-25.6-2.6c-3.1,2.2-5.5,5.3-6.9,9.1l-2.8,7.6l-1.2,3.2
								l-3.6,9.7l41,0.1l-1.9,5.1c0.3,0.1,0.5,0.1,0.8,0.2c5.4,1.4,10.6,3.4,16,4.8c0.6,0.2,1.2,0.3,1.7,0.4l2.8-7.8L277.3,74.7z"/>
							<path class="st0" d="M255.8,47.5c5.4,1.4,10.6,3.4,16,4.8c1.5,0.4,3,0.7,4.4,1c6-1.6,11-6.1,13.2-12.1l-12.3,0l-35.5-0.1
								c-4.3,0-8.3,1.4-11.6,3.8C238.8,44.9,247.5,45.4,255.8,47.5L255.8,47.5z"/>
							<path class="st0" d="M255.7,79.9c-0.3-0.1-0.5-0.1-0.8-0.2l-3.3,9.3c-1.5,4-5.3,6.7-9.6,6.7l-20.1-0.1
								c-4.2,0-8.1,1.3-11.4,3.6c-3.2,2.2-5.7,5.4-7.1,9.2l47.8,0.2c8.3,0,15.6-5.1,18.5-12.8l3.9-10.7c-0.6-0.1-1.2-0.3-1.7-0.4
								C266.3,83.3,261.1,81.3,255.7,79.9L255.7,79.9z"/>
							<path class="st0" d="M40.2,104.4l-1.3,3.6l6.7,0c3.3,0,6.5-0.9,9.3-2.4c4.1-2.2,7.5-5.9,9.2-10.5l3.5-9.6
								c-6.1-1.9-12.2-4-18.1-6.5L40.2,104.4z"/>
							<path class="st0" d="M84,40.6l4.8-12.9l0.6-1.7c1.6-3.9,6.3-13.3,15.8-15.2l-10.1,0l-1.2,0l-32.6-0.1
								c-10.9,0-20.7,6.7-24.5,16.9l31.6,0.1l-4.8,12.9l-3.7,10c6.1,2.1,12.2,4,18.5,5.5L84,40.6z"/>
							<path class="st0" d="M78.4,56c-6.2-1.5-12.4-3.4-18.5-5.5l-7.2,19.6L49.5,79c5.9,2.5,12,4.6,18.1,6.5l6.6-18.1L78.4,56z"/>
							<path class="st0" d="M118,94.1l-5.2,14.1l6.7,0c8.3,0,15.6-5.1,18.5-12.9l0.5-1.4C131.7,94.3,124.8,94.4,118,94.1L118,94.1z"
								/>
							<path class="st0" d="M104,54.1l0.2-0.6l4.1,0l-2.6,7.2c6.7,0.7,13.4,1.1,20.1,1.2l3-8.3l4,0l-3,8.2c7-0.1,14-0.5,21-1.3
								l6.1-16.8l1.1-2.9l-6.8,0c0,0,0,0,0,0v0l-17.7-0.1l-6.7,0l-17.9-0.1l-5.9,0l-0.8,0c-8.2,0-15.6,5.1-18.4,12.8L82.4,57
								c6.4,1.4,12.8,2.5,19.3,3.3L104,54.1z"/>
							<path class="st0" d="M93.1,95.1l-4.8,13l6.7,0c8.3,0,15.6-5.1,18.5-12.9l0.5-1.4c-6.6-0.4-13.2-1.2-19.7-2.2L93.1,95.1z"/>
							<path class="st0" d="M125.7,61.9c-6.7,0-13.4-0.5-20.1-1.2L94.4,91.7c6.5,1.1,13.1,1.8,19.7,2.2l3.9-10.7L125.7,61.9z"/>
							<path class="st0" d="M150.8,60.6c-7,0.8-14,1.2-21,1.3l-7.2,19.8L118,94.1c6.9,0.3,13.7,0.2,20.6-0.1l5.8-15.9L150.8,60.6z"
								/>
							<path class="st0" d="M82.4,57l-3.2,8.8l-7.6,20.9c6.2,1.8,12.5,3.2,18.9,4.4l11.2-30.7C95.2,59.5,88.8,58.4,82.4,57L82.4,57z
								"/>
							<path class="st0" d="M64.9,104.8l-1.2,3.2l6.7,0c7.3,0,14-4,17.4-10.4c0.4-0.8,0.8-1.6,1.1-2.5l1.5-4.2
								c-6.4-1.2-12.7-2.6-18.9-4.4L64.9,104.8z"/>
						</g>
					</g>
					<g>
						<path class="st1" d="M211.9,28.1l62.7,0.2c10.9,0,20.6-6.7,24.4-16.9l-62.7-0.2C225.4,11.2,215.7,17.9,211.9,28.1L211.9,28.1z
							"/>
						<g>
							<path class="st0" d="M234.7,14.8l-3.2,8.8h0l-3.2-8.9l-1,0l3.6,9.9l1.1,0l3.7-9.9L234.7,14.8z"/>
							<path class="st0" d="M236.6,14.8l0,9.9l1,0l0-9.9L236.6,14.8z"/>
							<path class="st0" d="M240.6,23.9l0-3.9l5.5,0l0-0.8l-5.5,0l0-3.6l5.9,0l0-0.8l-6.8,0l0,9.9l6.9,0l0-0.8L240.6,23.9z"/>
							<path class="st0" d="M246.8,14.8l0,0.8l3.4,0l0,9.1l1,0l0-9.1l3.4,0l0-0.8L246.8,14.8z"/>
							<path class="st0" d="M262.4,14.9l0,8.4h0l-5.7-8.4l-1.1,0l0,9.9l0.9,0l0-8.4h0l5.8,8.4l1.1,0l0-9.9L262.4,14.9z"/>
							<path class="st0" d="M269.3,14.9l-1.1,0l-4,9.9l1,0l1.2-3.1l4.5,0l1.2,3.1l1,0L269.3,14.9z M266.7,20.9l2-5.1l1.9,5.1
								L266.7,20.9z"/>
							<path class="st0" d="M282.3,14.9l-3.4,8.7l-3.4-8.7l-1.4,0l0,9.9l0.9,0l0-8.5l0.1,0l3.4,8.6l0.9,0l3.4-8.5l0.1,0l0,8.5l0.9,0
								l0-9.9L282.3,14.9z"/>
						</g>
					</g>
				</g>
			</g>
		</g>
		<g>
			<path class="st0" d="M12.5,148.7H3.8c-1,0-1.8-0.3-2.3-1c-0.5-0.7-0.6-1.5-0.3-2.5l1.3-4.1c0.3-1,0.9-1.8,1.8-2.5
				c0.9-0.7,1.9-1,2.9-1h8.7l-0.8,2.6H6.4c-0.7,0-1.1,0.3-1.3,0.9l-1.3,4.1c-0.2,0.6,0.1,0.9,0.8,0.9h8.7L12.5,148.7z"/>
			<path class="st0" d="M28.5,145.2c-0.3,1-0.9,1.9-1.9,2.5c-0.9,0.7-1.9,1-2.9,1h-6.6c-1,0-1.8-0.3-2.3-1c-0.5-0.7-0.6-1.5-0.3-2.5
				l1.3-4.1c0.3-1,0.9-1.8,1.8-2.5c0.9-0.7,1.9-1,2.9-1h6.6c1,0,1.8,0.3,2.3,1c0.5,0.7,0.6,1.5,0.3,2.5L28.5,145.2z M27.2,141
				c0.2-0.6-0.1-0.9-0.8-0.9h-6.6c-0.7,0-1.1,0.3-1.3,0.9l-1.3,4.1c-0.2,0.6,0.1,0.9,0.8,0.9h6.6c0.7,0,1.1-0.3,1.3-0.9L27.2,141z
				 M26.4,134.4l1.1,2.2h-2.3l-0.7-0.9l-1.2,0.9h-2.3l2.5-2.2H26.4z"/>
			<path class="st0" d="M40.5,148.7h-2.6l-4.4-7.6l-2.3,7.6h-2.6l3.4-11.2h2.6L39,145l2.3-7.5h2.6L40.5,148.7z"/>
			<path class="st0" d="M53.9,148.7h-8.7c-1,0-1.8-0.3-2.3-1c-0.5-0.7-0.6-1.5-0.3-2.5l1.3-4.1c0.3-1,0.9-1.8,1.8-2.5
				c0.9-0.7,1.9-1,2.9-1h8.7l-0.8,2.6h-8.7c-0.7,0-1.1,0.3-1.3,0.9l-1.3,4.1c-0.2,0.6,0.1,0.9,0.8,0.9h6l0.5-1.7H49l0.8-2.6H56
				L53.9,148.7z"/>
			<path class="st0" d="M73.4,148.7h-2.6l-4.4-7.6l-2.3,7.6h-2.6l3.4-11.2h2.6l4.4,7.5l2.3-7.5h2.6L73.4,148.7z"/>
			<path class="st0" d="M86.8,148.7h-8.7c-1,0-1.8-0.3-2.3-1c-0.5-0.7-0.6-1.5-0.3-2.5l1.3-4.1c0.3-1,0.9-1.8,1.8-2.5
				c0.9-0.7,1.9-1,2.9-1h8.7l-0.8,2.6h-8.7c-0.7,0-1.1,0.3-1.3,0.9l-1.3,4.1c-0.2,0.6,0.1,0.9,0.8,0.9h6l0.5-1.7H82l0.8-2.6h6.2
				L86.8,148.7z"/>
			<path class="st0" d="M99.8,148.7h-2.6l1.3-4.3h-6.7l-1.3,4.3h-2.6l3.4-11.2h2.6l-1.3,4.3h6.7l1.3-4.3h2.6L99.8,148.7z"/>
			<path class="st0" d="M115.5,140.1h-9.3l-0.5,1.7h8.7l-0.8,2.6h-8.7l-0.5,1.7h9.3l-0.8,2.6h-11.9l3.4-11.2h11.9L115.5,140.1z
				 M107.3,151.7h-2.6l0.7-2.4h2.6L107.3,151.7z M112.8,134.4l1.1,2.2h-2.3l-0.7-0.9l-1.2,0.9h-2.3l2.5-2.2H112.8z"/>
			<path class="st0" d="M135.5,140.1h-5l-2.6,8.6h-2.6l2.6-8.6h-5l0.8-2.6h12.7L135.5,140.1z"/>
			<path class="st0" d="M136.2,148.7h-2.6l3.4-11.2h2.6L136.2,148.7z"/>
			<path class="st0" d="M151.9,140.1h-9.3l-0.5,1.7h8.7l-0.8,2.6h-8.7l-0.5,1.7h9.3l-0.8,2.6h-11.9l3.4-11.2h11.9L151.9,140.1z
				 M147.5,133.2l-3.1,2.2H142l2.5-2.2H147.5z M149.2,134.4l1.1,2.2h-2.3l-0.7-0.9l-1.2,0.9h-2.3l2.5-2.2H149.2z"/>
			<path class="st0" d="M162.3,148.7h-2.6l-4.4-7.6l-2.3,7.6h-2.6l3.4-11.2h2.6l4.4,7.5l2.3-7.5h2.6L162.3,148.7z"/>
			<path class="st0" d="M184.9,140.1h-5l-2.6,8.6h-2.6l2.6-8.6h-5l0.8-2.6h12.7L184.9,140.1z"/>
			<path class="st0" d="M199.4,140.2c0,0.3-0.1,0.6-0.2,0.9l-1.3,4.1c-0.3,1-0.9,1.9-1.9,2.5c-0.9,0.7-1.9,1-2.9,1h-6.6
				c-1,0-1.8-0.3-2.3-1c-0.5-0.7-0.6-1.5-0.3-2.5l1.3-4.1c0.3-1,0.9-1.8,1.9-2.5c0.9-0.7,1.9-1,2.9-1h6.6c1,0,1.8,0.3,2.3,1
				c0,0,0,0,0,0l0.6-1.8h1.9l-1.8,3.4H199.4z M196.6,141c0.2-0.6-0.1-0.9-0.8-0.9h-6.6c-0.7,0-1.1,0.3-1.3,0.9l-1.3,4.1
				c-0.2,0.6,0.1,0.9,0.8,0.9h6.6c0.7,0,1.1-0.3,1.3-0.9L196.6,141z M197.6,134.4l-3.1,2.2h-2.4l2.5-2.2H197.6z"/>
			<path class="st0" d="M200.6,148.7H198l3.4-11.2h2.6L200.6,148.7z"/>
			<path class="st0" d="M223.2,140.1h-5l-2.6,8.6h-2.6l2.6-8.6h-5l0.8-2.6H224L223.2,140.1z"/>
			<path class="st0" d="M236.1,145.2c-0.3,1-0.8,1.8-1.6,2.4c-0.8,0.7-1.7,1-2.6,1h-7.4c-0.9,0-1.6-0.3-2-1
				c-0.4-0.7-0.4-1.5-0.1-2.4l2.4-7.7h2.6l-2.4,7.7c-0.2,0.6-0.1,0.9,0.3,0.9h7.4c0.4,0,0.6-0.3,0.8-0.9l2.4-7.7h2.6L236.1,145.2z
				 M239.7,136.7l-1.8,3.4h-1.1l1-3.4H239.7z"/>
			<path class="st0" d="M252.5,140.2c0,0.3-0.1,0.6-0.2,0.9l-1.3,4.1c-0.3,1-0.9,1.9-1.9,2.5c-0.9,0.7-1.9,1-2.9,1h-6.6
				c-1,0-1.8-0.3-2.3-1c-0.5-0.7-0.6-1.5-0.3-2.5l1.3-4.1c0.3-1,0.9-1.8,1.9-2.5c0.9-0.7,1.9-1,2.9-1h6.6c1,0,1.8,0.3,2.3,1
				c0,0,0,0,0,0l0.6-1.8h1.9l-1.8,3.4H252.5z M249.8,141c0.2-0.6-0.1-0.9-0.8-0.9h-6.6c-0.7,0-1.1,0.3-1.3,0.9l-1.3,4.1
				c-0.2,0.6,0.1,0.9,0.8,0.9h6.6c0.7,0,1.1-0.3,1.3-0.9L249.8,141z"/>
			<path class="st0" d="M263.1,148.7h-2.6l-4.4-7.6l-2.3,7.6h-2.6l3.4-11.2h2.6l4.4,7.5l2.3-7.5h2.6L263.1,148.7z"/>
			<path class="st0" d="M276.5,148.7h-8.7c-1,0-1.8-0.3-2.3-1c-0.5-0.7-0.6-1.5-0.3-2.5l1.3-4.1c0.3-1,0.9-1.8,1.8-2.5
				c0.9-0.7,1.9-1,2.9-1h8.7l-0.8,2.6h-8.7c-0.7,0-1.1,0.3-1.3,0.9l-1.3,4.1c-0.2,0.6,0.1,0.9,0.8,0.9h6l0.5-1.7h-3.5l0.8-2.6h6.2
				L276.5,148.7z"/>
			<path class="st0" d="M294.2,148.7h-10.1l3.4-11.2h2.6l-2.6,8.6h7.5L294.2,148.7z"/>
			<path class="st0" d="M308.3,148.7h-2.6l1.1-3.6h-8.5l-1.1,3.6h-2.6l2.4-7.7c0.3-0.9,0.8-1.8,1.6-2.4c0.8-0.7,1.7-1,2.6-1h7.4
				c0.9,0,1.6,0.3,2,1c0.4,0.7,0.4,1.5,0.1,2.4L308.3,148.7z M299.1,142.5h8.5l0.5-1.6c0.2-0.6,0.1-0.8-0.3-0.8h-7.4
				c-0.4,0-0.6,0.3-0.8,0.8L299.1,142.5z"/>
			<path class="st0" d="M312,148.7h-2.6l3.4-11.2h2.6L312,148.7z"/>
		</g>
	</g>
</g>
</svg>
