<svg width="41" height="41" viewBox="0 0 41 41" fill="none" xmlns="http://www.w3.org/2000/svg">
<path d="M21 35C29.2812 35 36 28.2812 36 20C36 11.7188 29.2812 5 21 5C12.6406 5 6 11.7188 6 20C6 20.3125 6 20.625 6 20.9375L1.07812 22.4219C1 21.6406 1 20.8594 1 20C1 8.98438 9.90625 0 21 0C32.0156 0 41 8.98438 41 20C41 31.0938 32.0156 40 21 40C20.1406 40 19.3594 40 18.5781 39.9219L20.0625 35C20.375 35 20.6875 35 21 35ZM22.7188 26.0156C25.2969 25.3125 27.25 22.8906 27.25 20C27.25 16.5625 24.4375 13.75 21 13.75C18.1094 13.75 15.6875 15.7031 14.9844 18.2812L9.75 19.8438C9.82812 13.75 14.8281 8.75 21 8.75C27.1719 8.75 32.25 13.8281 32.25 20C32.25 26.1719 27.25 31.1719 21.1562 31.25L22.7188 26.0156ZM4.04688 24.1406L19.9844 19.4531C21 19.1406 21.8594 20 21.5469 21.0156L16.8594 36.9531C16.5469 38.0469 15.0625 38.2031 14.5156 37.1875L12.3281 32.7344C12.25 32.5781 12.1719 32.5 12.0938 32.4219L5.21875 39.2969C4.28125 40.3125 2.64062 40.3125 1.70312 39.2969C0.6875 38.3594 0.6875 36.7188 1.70312 35.7812L8.57812 28.9062C8.5 28.8281 8.42188 28.75 8.26562 28.6719L3.8125 26.4844C2.79688 25.9375 2.95312 24.4531 4.04688 24.1406Z" fill="#0F2F58"/>
</svg>
