<svg width="1303" height="602" viewBox="0 0 1303 602" fill="none" xmlns="http://www.w3.org/2000/svg">
<mask id="mask0_362_226" style="mask-type:luminance" maskUnits="userSpaceOnUse" x="0" y="0" width="1303" height="602">
<path d="M1302.53 0H0V601.168H1302.53V0Z" fill="white"/>
</mask>
<g mask="url(#mask0_362_226)">
<path d="M1302.53 0H-0.000244141V601.168H1302.53V0Z" fill="#0A3E65"/>
<path style="mix-blend-mode:multiply" d="M1302.53 0H-0.000244141V601.168H1302.53V0Z" fill="url(#paint0_linear_362_226)"/>
<g opacity="0.2">
<path d="M408.213 739.106L504.77 525.821" stroke="#1C74BA" stroke-miterlimit="10"/>
<path d="M504.77 533.166C508.826 533.166 512.115 529.877 512.115 525.821C512.115 521.765 508.826 518.477 504.77 518.477C500.714 518.477 497.426 521.765 497.426 525.821C497.426 529.877 500.714 533.166 504.77 533.166Z" fill="#1C74BA"/>
<path d="M259.474 159.57L356.031 -53.7144" stroke="#1C74BA" stroke-miterlimit="10"/>
<path d="M259.474 166.914C263.53 166.914 266.818 163.626 266.818 159.57C266.818 155.514 263.53 152.226 259.474 152.226C255.418 152.226 252.129 155.514 252.129 159.57C252.129 163.626 255.418 166.914 259.474 166.914Z" fill="#1C74BA"/>
<path d="M606.788 -67.5813L541.892 75.7572" stroke="#1C74BA" stroke-miterlimit="10"/>
<path d="M541.892 83.1014C545.949 83.1014 549.237 79.8133 549.237 75.7571C549.237 71.701 545.949 68.4128 541.892 68.4128C537.836 68.4128 534.548 71.701 534.548 75.7571C534.548 79.8133 537.836 83.1014 541.892 83.1014Z" fill="#1C74BA"/>
<path d="M626.697 -24.718L553.295 137.427L484.15 159.329L419.254 302.678" stroke="#1C74BA" stroke-miterlimit="10"/>
<path d="M419.254 310.022C423.31 310.022 426.598 306.734 426.598 302.678C426.598 298.622 423.31 295.334 419.254 295.334C415.198 295.334 411.91 298.622 411.91 302.678C411.91 306.734 415.198 310.022 419.254 310.022Z" fill="#1C74BA"/>
<path d="M697.795 409.285C701.851 409.285 705.139 405.997 705.139 401.941C705.139 397.885 701.851 394.596 697.795 394.596C693.739 394.596 690.451 397.885 690.451 401.941C690.451 405.997 693.739 409.285 697.795 409.285Z" fill="#1C74BA"/>
<path d="M696.613 401.861L765.757 379.958L830.653 236.62" stroke="#1C74BA" stroke-miterlimit="10"/>
<path d="M830.653 243.964C834.709 243.964 837.997 240.676 837.997 236.62C837.997 232.563 834.709 229.275 830.653 229.275C826.597 229.275 823.309 232.563 823.309 236.62C823.309 240.676 826.597 243.964 830.653 243.964Z" fill="#1C74BA"/>
<path d="M774.324 37.6531L700.921 199.798L631.777 221.701L566.881 365.049" stroke="#1C74BA" stroke-miterlimit="10"/>
<path d="M566.881 372.393C570.937 372.393 574.225 369.105 574.225 365.049C574.225 360.993 570.937 357.705 566.881 357.705C562.825 357.705 559.537 360.993 559.537 365.049C559.537 369.105 562.825 372.393 566.881 372.393Z" fill="#1C74BA"/>
<path d="M774.324 30.3089C778.372 30.3089 781.668 33.6053 781.668 37.6531C781.668 41.701 778.372 44.9974 774.324 44.9974C770.276 44.9974 766.979 41.701 766.979 37.6531C766.979 33.6053 770.276 30.3089 774.324 30.3089Z" fill="#1C74BA"/>
<path d="M547.383 518.447L607.229 386.25" stroke="#1C74BA" stroke-miterlimit="10"/>
<path d="M607.229 393.595C611.285 393.595 614.573 390.306 614.573 386.25C614.573 382.194 611.285 378.906 607.229 378.906C603.173 378.906 599.885 382.194 599.885 386.25C599.885 390.306 603.173 393.595 607.229 393.595Z" fill="#1C74BA"/>
<path d="M547.383 525.791C551.439 525.791 554.727 522.503 554.727 518.447C554.727 514.391 551.439 511.103 547.383 511.103C543.327 511.103 540.039 514.391 540.039 518.447C540.039 522.503 543.327 525.791 547.383 525.791Z" fill="#1C74BA"/>
<path d="M309.2 215.529L346.463 133.209" stroke="#1C74BA" stroke-miterlimit="10"/>
<path d="M346.463 140.553C350.519 140.553 353.807 137.265 353.807 133.209C353.807 129.153 350.519 125.864 346.463 125.864C342.407 125.864 339.118 129.153 339.118 133.209C339.118 137.265 342.407 140.553 346.463 140.553Z" fill="#1C74BA"/>
<path d="M309.2 222.873C313.257 222.873 316.545 219.585 316.545 215.529C316.545 211.472 313.257 208.184 309.2 208.184C305.144 208.184 301.856 211.472 301.856 215.529C301.856 219.585 305.144 222.873 309.2 222.873Z" fill="#1C74BA"/>
<path d="M693.126 60.267L730.388 -22.0529" stroke="#1C74BA" stroke-miterlimit="10"/>
<path d="M693.126 67.6113C697.182 67.6113 700.47 64.3232 700.47 60.267C700.47 56.2109 697.182 52.9228 693.126 52.9228C689.07 52.9228 685.782 56.2109 685.782 60.267C685.782 64.3232 689.07 67.6113 693.126 67.6113Z" fill="#1C74BA"/>
<path d="M195.509 371.341L232.772 289.021" stroke="#1C74BA" stroke-miterlimit="10"/>
<path d="M232.772 296.366C236.828 296.366 240.116 293.078 240.116 289.021C240.116 284.965 236.828 281.677 232.772 281.677C228.716 281.677 225.428 284.965 225.428 289.021C225.428 293.078 228.716 296.366 232.772 296.366Z" fill="#1C74BA"/>
<path d="M195.51 378.686C199.566 378.686 202.854 375.397 202.854 371.341C202.854 367.285 199.566 363.997 195.51 363.997C191.453 363.997 188.165 367.285 188.165 371.341C188.165 375.397 191.453 378.686 195.51 378.686Z" fill="#1C74BA"/>
<path d="M292.418 689.68L352.264 557.483" stroke="#1C74BA" stroke-miterlimit="10"/>
<path d="M352.264 564.827C356.32 564.827 359.608 561.539 359.608 557.483C359.608 553.427 356.32 550.139 352.264 550.139C348.208 550.139 344.92 553.427 344.92 557.483C344.92 561.539 348.208 564.827 352.264 564.827Z" fill="#1C74BA"/>
<path d="M114.752 346.263C118.809 346.263 122.097 342.975 122.097 338.918C122.097 334.862 118.809 331.574 114.752 331.574C110.696 331.574 107.408 334.862 107.408 338.918C107.408 342.975 110.696 346.263 114.752 346.263Z" fill="#1C74BA"/>
<path d="M200.93 -27.7539L179.238 20.1792L190.189 54.7564L157.736 126.426L179.649 195.57L114.752 338.918" stroke="#1C74BA" stroke-miterlimit="10"/>
<path d="M307.898 299.893C311.954 299.893 315.242 296.604 315.242 292.548C315.242 288.492 311.954 285.204 307.898 285.204C303.842 285.204 300.553 288.492 300.553 292.548C300.553 296.604 303.842 299.893 307.898 299.893Z" fill="#1C74BA"/>
<path d="M425.707 -85.2356L350.881 80.0655L372.784 149.21L307.898 292.548" stroke="#1C74BA" stroke-miterlimit="10"/>
<path d="M183.466 233.023C187.522 233.023 190.81 229.734 190.81 225.678C190.81 221.622 187.522 218.334 183.466 218.334C179.41 218.334 176.122 221.622 176.122 225.678C176.122 229.734 179.41 233.023 183.466 233.023Z" fill="#1C74BA"/>
<path d="M207.303 -47.2318L248.352 82.3399L183.466 225.678" stroke="#1C74BA" stroke-miterlimit="10"/>
<path d="M724.928 524.479L740.638 574.055L720.639 618.231" stroke="#1C74BA" stroke-miterlimit="10"/>
<path d="M724.928 531.823C728.984 531.823 732.272 528.535 732.272 524.479C732.272 520.423 728.984 517.135 724.928 517.135C720.872 517.135 717.583 520.423 717.583 524.479C717.583 528.535 720.872 531.823 724.928 531.823Z" fill="#1C74BA"/>
<path d="M167.836 -37.3927L133.73 37.9537L103.281 47.5924L77.8011 103.892L8.64679 125.794L-56.2393 269.143" stroke="#1C74BA" stroke-miterlimit="10"/>
<path d="M97.3088 376.842L71.8193 433.141L2.67497 455.054L-30.2791 527.845" stroke="#1C74BA" stroke-miterlimit="10"/>
<path d="M97.3089 383.615C101.365 383.615 104.653 380.327 104.653 376.271C104.653 372.215 101.365 368.927 97.3089 368.927C93.2527 368.927 89.9646 372.215 89.9646 376.271C89.9646 380.327 93.2527 383.615 97.3089 383.615Z" fill="#1C74BA"/>
<path d="M400.758 474.121L375.269 530.42L306.124 552.323L273.17 625.124" stroke="#1C74BA" stroke-miterlimit="10"/>
<path d="M400.758 480.884C404.814 480.884 408.102 477.596 408.102 473.54C408.102 469.484 404.814 466.196 400.758 466.196C396.702 466.196 393.414 469.484 393.414 473.54C393.414 477.596 396.702 480.884 400.758 480.884Z" fill="#1C74BA"/>
<path d="M661.805 141.044L636.316 197.343L567.171 219.246L534.218 292.047" stroke="#1C74BA" stroke-miterlimit="10"/>
<path d="M534.218 299.392C538.274 299.392 541.562 296.103 541.562 292.047C541.562 287.991 538.274 284.703 534.218 284.703C530.161 284.703 526.873 287.991 526.873 292.047C526.873 296.103 530.161 299.392 534.218 299.392Z" fill="#1C74BA"/>
<path d="M661.805 147.807C665.861 147.807 669.149 144.519 669.149 140.463C669.149 136.407 665.861 133.119 661.805 133.119C657.749 133.119 654.461 136.407 654.461 140.463C654.461 144.519 657.749 147.807 661.805 147.807Z" fill="#1C74BA"/>
<path d="M29.3268 347.024L3.83732 403.323L-189.839 464.683" stroke="#1C74BA" stroke-miterlimit="10"/>
<path d="M29.3267 353.787C33.3828 353.787 36.671 350.499 36.671 346.443C36.671 342.387 33.3828 339.099 29.3267 339.099C25.2705 339.099 21.9824 342.387 21.9824 346.443C21.9824 350.499 25.2705 353.787 29.3267 353.787Z" fill="#1C74BA"/>
<path d="M377.553 279.633C381.609 279.633 384.897 276.345 384.897 272.289C384.897 268.233 381.609 264.945 377.553 264.945C373.497 264.945 370.209 268.233 370.209 272.289C370.209 276.345 373.497 279.633 377.553 279.633Z" fill="#1C74BA"/>
<path d="M463.831 -30.3289L421.559 63.0525L442.439 128.95L377.553 272.289" stroke="#1C74BA" stroke-miterlimit="10"/>
<path d="M49.105 312.577C53.1612 312.577 56.4493 309.289 56.4493 305.233C56.4493 301.177 53.1612 297.889 49.105 297.889C45.0489 297.889 41.7607 301.177 41.7607 305.233C41.7607 309.289 45.0489 312.577 49.105 312.577Z" fill="#1C74BA"/>
<path d="M84.4439 125.153L66.3287 165.171L85.3356 225.197L49.1052 305.233" stroke="#1C74BA" stroke-miterlimit="10"/>
<path d="M84.4436 132.497C88.4997 132.497 91.7879 129.209 91.7879 125.153C91.7879 121.097 88.4997 117.809 84.4436 117.809C80.3875 117.809 77.0994 121.097 77.0994 125.153C77.0994 129.209 80.3875 132.497 84.4436 132.497Z" fill="#1C74BA"/>
<path d="M711.762 135.664C715.818 135.664 719.106 132.375 719.106 128.319C719.106 124.263 715.818 120.975 711.762 120.975C707.706 120.975 704.418 124.263 704.418 128.319C704.418 132.375 707.706 135.664 711.762 135.664Z" fill="#1C74BA"/>
<path d="M676.423 308.399L694.539 268.381L675.522 208.365L711.762 128.319" stroke="#1C74BA" stroke-miterlimit="10"/>
<path d="M676.424 315.743C680.48 315.743 683.768 312.455 683.768 308.399C683.768 304.343 680.48 301.055 676.424 301.055C672.367 301.055 669.079 304.343 669.079 308.399C669.079 312.455 672.367 315.743 676.424 315.743Z" fill="#1C74BA"/>
<path d="M657.918 0.480939C661.974 0.480939 665.262 -2.80722 665.262 -6.86334C665.262 -10.9195 661.974 -14.2076 657.918 -14.2076C653.862 -14.2076 650.573 -10.9195 650.573 -6.86334C650.573 -2.80722 653.862 0.480939 657.918 0.480939Z" fill="#1C74BA"/>
<path d="M622.839 154.901L607.129 105.325L657.918 -6.86334" stroke="#1C74BA" stroke-miterlimit="10"/>
<path d="M622.84 162.245C626.896 162.245 630.184 158.957 630.184 154.901C630.184 150.845 626.896 147.557 622.84 147.557C618.783 147.557 615.495 150.845 615.495 154.901C615.495 158.957 618.783 162.245 622.84 162.245Z" fill="#1C74BA"/>
<path d="M150.502 443.051C154.558 443.051 157.846 439.762 157.846 435.706C157.846 431.65 154.558 428.362 150.502 428.362C146.446 428.362 143.158 431.65 143.158 435.706C143.158 439.762 146.446 443.051 150.502 443.051Z" fill="#1C74BA"/>
<path d="M131.134 647.057L115.424 597.47L166.212 485.293" stroke="#1C74BA" stroke-miterlimit="10"/>
<path d="M166.212 485.293L150.502 435.706" stroke="#1C74BA" stroke-miterlimit="10"/>
<path d="M800.524 211.691C804.581 211.691 807.869 208.403 807.869 204.347C807.869 200.291 804.581 197.003 800.524 197.003C796.468 197.003 793.18 200.291 793.18 204.347C793.18 208.403 796.468 211.691 800.524 211.691Z" fill="#1C74BA"/>
<path d="M1076.56 -143.719L978.6 72.6511L909.456 94.5637L869.668 182.444L800.524 204.347" stroke="#1C74BA" stroke-miterlimit="10"/>
<path d="M-17.5443 222.161L4.36821 291.306L-60.5278 434.654" stroke="#1C74BA" stroke-miterlimit="10"/>
<path d="M115.614 -71.9698L-17.5444 222.162" stroke="#1C74BA" stroke-miterlimit="10"/>
<path d="M707.945 449.092C712.001 449.092 715.289 445.804 715.289 441.748C715.289 437.692 712.001 434.404 707.945 434.404C703.889 434.404 700.601 437.692 700.601 441.748C700.601 445.804 703.889 449.092 707.945 449.092Z" fill="#1C74BA"/>
<path d="M750.938 229.265L772.841 298.41L707.945 441.748" stroke="#1C74BA" stroke-miterlimit="10"/>
<path d="M859.559 -10.6908L750.938 229.265" stroke="#1C74BA" stroke-miterlimit="10"/>
<path d="M474.151 155.582C478.207 155.582 481.495 152.294 481.495 148.238C481.495 144.182 478.207 140.894 474.151 140.894C470.095 140.894 466.806 144.182 466.806 148.238C466.806 152.294 470.095 155.582 474.151 155.582Z" fill="#1C74BA"/>
<path d="M509.489 -31.8318L491.364 8.1859L510.381 68.2025L474.151 148.238" stroke="#1C74BA" stroke-miterlimit="10"/>
<path d="M886.031 330.682C890.087 330.682 893.375 327.394 893.375 323.338C893.375 319.282 890.087 315.994 886.031 315.994C881.975 315.994 878.687 319.282 878.687 323.338C878.687 327.394 881.975 330.682 886.031 330.682Z" fill="#1C74BA"/>
<path d="M799.854 690.01L821.556 642.077L810.604 607.5L843.047 535.831L821.145 466.686L886.031 323.338" stroke="#1C74BA" stroke-miterlimit="10"/>
</g>
<g opacity="0.6">
<path d="M485.783 264.083L406.379 439.484" stroke="#27A8DF" stroke-miterlimit="10"/>
<path d="M489.912 469.933L410.517 645.323" stroke="#27A8DF" stroke-miterlimit="10"/>
<path d="M277.399 530.23L334.259 512.215L387.623 394.336" stroke="#27A8DF" stroke-miterlimit="10"/>
<path d="M172.405 636.426L232.772 503.087L289.632 485.072L342.996 367.193" stroke="#27A8DF" stroke-miterlimit="10"/>
<path d="M92.249 427.771L35.3886 445.786L-17.9751 563.665" stroke="#27A8DF" stroke-miterlimit="10"/>
<path d="M3.9375 684.87L64.3048 551.531L121.165 533.516L174.529 415.637" stroke="#27A8DF" stroke-miterlimit="10"/>
<path d="M178.006 294.853L128.79 403.564" stroke="#27A8DF" stroke-miterlimit="10"/>
<path d="M386.441 538.596L355.791 606.288" stroke="#27A8DF" stroke-miterlimit="10"/>
<path d="M100.565 567.803L69.9155 635.494" stroke="#27A8DF" stroke-miterlimit="10"/>
<path d="M400.237 148.669L351.022 257.38" stroke="#27A8DF" stroke-miterlimit="10"/>
<path d="M514.93 572.442L532.775 533.015L523.767 504.59L550.449 445.646L532.434 388.785L585.798 270.906" stroke="#27A8DF" stroke-miterlimit="10"/>
<path d="M292.057 650.123L353.597 514.189L335.582 457.328L388.946 339.449" stroke="#27A8DF" stroke-miterlimit="10"/>
<path d="M460.133 615.666L426.378 509.109L479.742 391.23" stroke="#27A8DF" stroke-miterlimit="10"/>
<path d="M137.206 251.338L124.291 210.569L140.743 174.248" stroke="#27A8DF" stroke-miterlimit="10"/>
<path d="M614.944 608.762L642.999 546.802L668.037 538.867L688.988 492.567L745.859 474.552L799.222 356.673" stroke="#27A8DF" stroke-miterlimit="10"/>
<path d="M560.689 405.928L581.65 359.639L638.51 341.624L665.613 281.747" stroke="#27A8DF" stroke-miterlimit="10"/>
<path d="M187.183 461.917L208.144 415.617L265.005 397.602L292.107 337.736" stroke="#27A8DF" stroke-miterlimit="10"/>
<path d="M674.109 601.178L695.07 554.878L854.339 504.42" stroke="#27A8DF" stroke-miterlimit="10"/>
<path d="M746.55 654.962L781.317 578.173L764.154 523.978L817.518 406.099" stroke="#27A8DF" stroke-miterlimit="10"/>
<path d="M571.27 612.911L586.168 579.997L570.528 530.641L600.326 464.823" stroke="#27A8DF" stroke-miterlimit="10"/>
<path d="M84.4539 462.218L69.555 495.132L85.1853 544.488L55.3875 610.305" stroke="#27A8DF" stroke-miterlimit="10"/>
<path d="M164.379 491.114L177.294 531.883L135.533 624.142" stroke="#27A8DF" stroke-miterlimit="10"/>
<path d="M516.944 357.524L504.029 316.755L545.79 224.496L532.875 183.727" stroke="#27A8DF" stroke-miterlimit="10"/>
<path d="M262.129 476.536L342.685 298.59L399.546 280.575L432.269 208.305L489.13 190.29" stroke="#27A8DF" stroke-miterlimit="10"/>
<path d="M576.079 667.967L685.581 426.088L667.566 369.217L720.93 251.338" stroke="#27A8DF" stroke-miterlimit="10"/>
<path d="M-38.4648 677.155L50.8687 479.822L32.8537 422.962L86.2173 305.083" stroke="#27A8DF" stroke-miterlimit="10"/>
<path d="M233.604 660.804L248.503 627.89L232.872 578.534L262.67 512.706" stroke="#27A8DF" stroke-miterlimit="10"/>
<path d="M294.752 132.948L276.908 172.365L285.915 200.79L259.233 259.734L277.248 316.595L223.885 434.474" stroke="#27A8DF" stroke-miterlimit="10"/>
<path d="M406.379 445.525C409.716 445.525 412.421 442.82 412.421 439.484C412.421 436.147 409.716 433.442 406.379 433.442C403.042 433.442 400.337 436.147 400.337 439.484C400.337 442.82 403.042 445.525 406.379 445.525Z" fill="#27A8DF"/>
<path d="M485.783 270.125C489.12 270.125 491.825 267.42 491.825 264.083C491.825 260.746 489.12 258.041 485.783 258.041C482.447 258.041 479.742 260.746 479.742 264.083C479.742 267.42 482.447 270.125 485.783 270.125Z" fill="#27A8DF"/>
<path d="M489.912 475.974C493.248 475.974 495.953 473.27 495.953 469.933C495.953 466.596 493.248 463.891 489.912 463.891C486.575 463.891 483.87 466.596 483.87 469.933C483.87 473.27 486.575 475.974 489.912 475.974Z" fill="#27A8DF"/>
<path d="M387.623 400.378C390.96 400.378 393.665 397.673 393.665 394.336C393.665 390.999 390.96 388.294 387.623 388.294C384.286 388.294 381.581 390.999 381.581 394.336C381.581 397.673 384.286 400.378 387.623 400.378Z" fill="#27A8DF"/>
<path d="M277.399 536.262C274.072 536.262 271.357 533.556 271.357 530.22C271.357 526.883 274.062 524.178 277.399 524.178C280.735 524.178 283.44 526.883 283.44 530.22C283.44 533.556 280.735 536.262 277.399 536.262Z" fill="#27A8DF"/>
<path d="M342.996 373.235C346.333 373.235 349.038 370.53 349.038 367.193C349.038 363.856 346.333 361.151 342.996 361.151C339.659 361.151 336.954 363.856 336.954 367.193C336.954 370.53 339.659 373.235 342.996 373.235Z" fill="#27A8DF"/>
<path d="M91.2771 433.752C94.6138 433.752 97.3188 431.047 97.3188 427.711C97.3188 424.374 94.6138 421.669 91.2771 421.669C87.9403 421.669 85.2354 424.374 85.2354 427.711C85.2354 431.047 87.9403 433.752 91.2771 433.752Z" fill="#27A8DF"/>
<path d="M174.529 421.679C177.866 421.679 180.571 418.974 180.571 415.637C180.571 412.301 177.866 409.596 174.529 409.596C171.192 409.596 168.487 412.301 168.487 415.637C168.487 418.974 171.192 421.679 174.529 421.679Z" fill="#27A8DF"/>
<path d="M128.79 409.606C132.127 409.606 134.832 406.901 134.832 403.564C134.832 400.227 132.127 397.522 128.79 397.522C125.453 397.522 122.748 400.227 122.748 403.564C122.748 406.901 125.453 409.606 128.79 409.606Z" fill="#27A8DF"/>
<path d="M178.006 300.894C181.342 300.894 184.047 298.189 184.047 294.853C184.047 291.516 181.342 288.811 178.006 288.811C174.669 288.811 171.964 291.516 171.964 294.853C171.964 298.189 174.669 300.894 178.006 300.894Z" fill="#27A8DF"/>
<path d="M355.791 612.329C359.128 612.329 361.833 609.624 361.833 606.288C361.833 602.951 359.128 600.246 355.791 600.246C352.454 600.246 349.749 602.951 349.749 606.288C349.749 609.624 352.454 612.329 355.791 612.329Z" fill="#27A8DF"/>
<path d="M386.441 544.638C389.777 544.638 392.482 541.933 392.482 538.596C392.482 535.259 389.777 532.554 386.441 532.554C383.104 532.554 380.399 535.259 380.399 538.596C380.399 541.933 383.104 544.638 386.441 544.638Z" fill="#27A8DF"/>
<path d="M100.565 573.845C103.902 573.845 106.607 571.14 106.607 567.803C106.607 564.466 103.902 561.761 100.565 561.761C97.2284 561.761 94.5234 564.466 94.5234 567.803C94.5234 571.14 97.2284 573.845 100.565 573.845Z" fill="#27A8DF"/>
<path d="M351.022 263.422C354.358 263.422 357.063 260.717 357.063 257.38C357.063 254.043 354.358 251.338 351.022 251.338C347.685 251.338 344.98 254.043 344.98 257.38C344.98 260.717 347.685 263.422 351.022 263.422Z" fill="#27A8DF"/>
<path d="M400.237 154.71C403.574 154.71 406.279 152.006 406.279 148.669C406.279 145.332 403.574 142.627 400.237 142.627C396.901 142.627 394.196 145.332 394.196 148.669C394.196 152.006 396.901 154.71 400.237 154.71Z" fill="#27A8DF"/>
<path d="M514.93 578.484C518.267 578.484 520.972 575.779 520.972 572.442C520.972 569.105 518.267 566.4 514.93 566.4C511.593 566.4 508.888 569.105 508.888 572.442C508.888 575.779 511.593 578.484 514.93 578.484Z" fill="#27A8DF"/>
<path d="M585.798 276.948C589.134 276.948 591.839 274.243 591.839 270.906C591.839 267.569 589.134 264.864 585.798 264.864C582.461 264.864 579.756 267.569 579.756 270.906C579.756 274.243 582.461 276.948 585.798 276.948Z" fill="#27A8DF"/>
<path d="M388.945 345.491C392.282 345.491 394.987 342.786 394.987 339.449C394.987 336.112 392.282 333.408 388.945 333.408C385.609 333.408 382.904 336.112 382.904 339.449C382.904 342.786 385.609 345.491 388.945 345.491Z" fill="#27A8DF"/>
<path d="M140.743 180.29C144.08 180.29 146.785 177.585 146.785 174.248C146.785 170.912 144.08 168.207 140.743 168.207C137.407 168.207 134.702 170.912 134.702 174.248C134.702 177.585 137.407 180.29 140.743 180.29Z" fill="#27A8DF"/>
<path d="M137.207 257.38C140.543 257.38 143.248 254.675 143.248 251.338C143.248 248.001 140.543 245.296 137.207 245.296C133.87 245.296 131.165 248.001 131.165 251.338C131.165 254.675 133.87 257.38 137.207 257.38Z" fill="#27A8DF"/>
<path d="M799.223 362.715C802.559 362.715 805.264 360.01 805.264 356.673C805.264 353.336 802.559 350.631 799.223 350.631C795.886 350.631 793.181 353.336 793.181 356.673C793.181 360.01 795.886 362.715 799.223 362.715Z" fill="#27A8DF"/>
<path d="M665.613 287.789C668.949 287.789 671.654 285.084 671.654 281.747C671.654 278.41 668.949 275.705 665.613 275.705C662.276 275.705 659.571 278.41 659.571 281.747C659.571 285.084 662.276 287.789 665.613 287.789Z" fill="#27A8DF"/>
<path d="M560.689 412.451C564.026 412.451 566.731 409.746 566.731 406.409C566.731 403.073 564.026 400.368 560.689 400.368C557.352 400.368 554.647 403.073 554.647 406.409C554.647 409.746 557.352 412.451 560.689 412.451Z" fill="#27A8DF"/>
<path d="M292.107 343.778C295.444 343.778 298.149 341.073 298.149 337.736C298.149 334.399 295.444 331.694 292.107 331.694C288.77 331.694 286.065 334.399 286.065 337.736C286.065 341.073 288.77 343.778 292.107 343.778Z" fill="#27A8DF"/>
<path d="M187.183 468.43C190.52 468.43 193.225 465.725 193.225 462.388C193.225 459.051 190.52 456.346 187.183 456.346C183.847 456.346 181.142 459.051 181.142 462.388C181.142 465.725 183.847 468.43 187.183 468.43Z" fill="#27A8DF"/>
<path d="M853.708 509.85C857.045 509.85 859.75 507.145 859.75 503.809C859.75 500.472 857.045 497.767 853.708 497.767C850.371 497.767 847.666 500.472 847.666 503.809C847.666 507.145 850.371 509.85 853.708 509.85Z" fill="#27A8DF"/>
<path d="M674.109 607.69C677.446 607.69 680.151 604.985 680.151 601.649C680.151 598.312 677.446 595.607 674.109 595.607C670.772 595.607 668.067 598.312 668.067 601.649C668.067 604.985 670.772 607.69 674.109 607.69Z" fill="#27A8DF"/>
<path d="M817.518 412.14C820.855 412.14 823.56 409.435 823.56 406.099C823.56 402.762 820.855 400.057 817.518 400.057C814.181 400.057 811.476 402.762 811.476 406.099C811.476 409.435 814.181 412.14 817.518 412.14Z" fill="#27A8DF"/>
<path d="M84.4538 468.259C87.7906 468.259 90.4956 465.555 90.4956 462.218C90.4956 458.881 87.7906 456.176 84.4538 456.176C81.1171 456.176 78.4121 458.881 78.4121 462.218C78.4121 465.555 81.1171 468.259 84.4538 468.259Z" fill="#27A8DF"/>
<path d="M164.379 497.156C167.716 497.156 170.421 494.451 170.421 491.114C170.421 487.777 167.716 485.072 164.379 485.072C161.042 485.072 158.337 487.777 158.337 491.114C158.337 494.451 161.042 497.156 164.379 497.156Z" fill="#27A8DF"/>
<path d="M516.944 363.566C520.281 363.566 522.986 360.861 522.986 357.524C522.986 354.188 520.281 351.483 516.944 351.483C513.607 351.483 510.902 354.188 510.902 357.524C510.902 360.861 513.607 363.566 516.944 363.566Z" fill="#27A8DF"/>
<path d="M532.875 189.769C536.211 189.769 538.916 187.064 538.916 183.727C538.916 180.39 536.211 177.685 532.875 177.685C529.538 177.685 526.833 180.39 526.833 183.727C526.833 187.064 529.538 189.769 532.875 189.769Z" fill="#27A8DF"/>
<path d="M489.13 196.331C492.467 196.331 495.172 193.626 495.172 190.29C495.172 186.953 492.467 184.248 489.13 184.248C485.793 184.248 483.088 186.953 483.088 190.29C483.088 193.626 485.793 196.331 489.13 196.331Z" fill="#27A8DF"/>
<path d="M262.129 482.567C258.803 482.567 256.087 479.862 256.087 476.526C256.087 473.189 258.793 470.484 262.129 470.484C265.466 470.484 268.171 473.189 268.171 476.526C268.171 479.862 265.466 482.567 262.129 482.567Z" fill="#27A8DF"/>
<path d="M720.93 258.051C724.267 258.051 726.972 255.346 726.972 252.009C726.972 248.673 724.267 245.968 720.93 245.968C717.593 245.968 714.888 248.673 714.888 252.009C714.888 255.346 717.593 258.051 720.93 258.051Z" fill="#27A8DF"/>
<path d="M86.2173 311.124C89.554 311.124 92.259 308.419 92.259 305.083C92.259 301.746 89.554 299.041 86.2173 299.041C82.8805 299.041 80.1755 301.746 80.1755 305.083C80.1755 308.419 82.8805 311.124 86.2173 311.124Z" fill="#27A8DF"/>
<path d="M262.67 518.748C266.007 518.748 268.712 516.043 268.712 512.706C268.712 509.369 266.007 506.664 262.67 506.664C259.333 506.664 256.628 509.369 256.628 512.706C256.628 516.043 259.333 518.748 262.67 518.748Z" fill="#27A8DF"/>
<path d="M294.752 138.99C298.089 138.99 300.794 136.285 300.794 132.948C300.794 129.611 298.089 126.906 294.752 126.906C291.416 126.906 288.711 129.611 288.711 132.948C288.711 136.285 291.416 138.99 294.752 138.99Z" fill="#27A8DF"/>
<path d="M223.885 440.516C227.221 440.516 229.926 437.811 229.926 434.474C229.926 431.137 227.221 428.432 223.885 428.432C220.548 428.432 217.843 431.137 217.843 434.474C217.843 437.811 220.548 440.516 223.885 440.516Z" fill="#27A8DF"/>
<path d="M600.326 470.865C603.663 470.865 606.368 468.16 606.368 464.823C606.368 461.486 603.663 458.781 600.326 458.781C596.989 458.781 594.284 461.486 594.284 464.823C594.284 468.16 596.989 470.865 600.326 470.865Z" fill="#27A8DF"/>
<path d="M479.742 397.272C483.078 397.272 485.783 394.567 485.783 391.23C485.783 387.893 483.078 385.188 479.742 385.188C476.405 385.188 473.7 387.893 473.7 391.23C473.7 394.567 476.405 397.272 479.742 397.272Z" fill="#27A8DF"/>
</g>
<path style="mix-blend-mode:soft-light" d="M869.772 1116.76C1062.88 879.224 965.154 479.953 651.498 224.961C337.842 -30.0313 -72.9703 -44.1851 -266.077 193.348C-459.183 430.881 -361.459 830.151 -47.8024 1085.14C265.854 1340.14 676.666 1354.29 869.772 1116.76Z" fill="url(#paint1_radial_362_226)"/>
<path style="mix-blend-mode:soft-light" d="M553.011 224.963C770.962 219.331 945.072 115.115 941.896 -7.81167C938.72 -130.738 759.461 -225.825 541.51 -220.194C323.559 -214.563 149.45 -110.346 152.626 12.5804C155.802 135.507 335.06 230.594 553.011 224.963Z" fill="url(#paint2_radial_362_226)"/>
<path style="mix-blend-mode:overlay" opacity="0.55" d="M1218.08 485.747C1237.61 325.78 1082.2 175.196 870.96 149.409C659.723 123.622 472.65 232.397 453.122 392.364C433.594 552.332 589.005 702.915 800.242 728.702C1011.48 754.489 1198.55 645.715 1218.08 485.747Z" fill="url(#paint3_radial_362_226)"/>
<path style="mix-blend-mode:soft-light" d="M1454.73 275.251C1515.37 109.179 1309.9 -118.432 995.791 -233.131C681.682 -347.829 377.886 -306.183 317.243 -140.11C256.601 25.9628 462.076 253.573 776.185 368.272C1090.29 482.971 1394.09 441.324 1454.73 275.251Z" fill="url(#paint4_radial_362_226)"/>
</g>
<defs>
<linearGradient id="paint0_linear_362_226" x1="436.618" y1="218.094" x2="1088.83" y2="468.73" gradientUnits="userSpaceOnUse">
<stop stop-color="white"/>
<stop offset="0.93" stop-color="#231F20"/>
</linearGradient>
<radialGradient id="paint1_radial_362_226" cx="0" cy="0" r="1" gradientUnits="userSpaceOnUse" gradientTransform="translate(308.476 648.91) rotate(-50.89) scale(530.268 684.111)">
<stop offset="0.11" stop-color="#231F20"/>
<stop offset="1" stop-color="#231F20" stop-opacity="0"/>
</radialGradient>
<radialGradient id="paint2_radial_362_226" cx="0" cy="0" r="1" gradientUnits="userSpaceOnUse" gradientTransform="translate(542.594 -9.6407) rotate(88.52) scale(211.852 368.975)">
<stop offset="0.11" stop-color="#231F20"/>
<stop offset="1" stop-color="#231F20" stop-opacity="0"/>
</radialGradient>
<radialGradient id="paint3_radial_362_226" cx="0" cy="0" r="1" gradientUnits="userSpaceOnUse" gradientTransform="translate(838.759 428.07) rotate(-83.04) scale(279.15 360.138)">
<stop stop-color="white"/>
<stop offset="0.39" stop-color="white" stop-opacity="0.31"/>
<stop offset="0.8" stop-color="white" stop-opacity="0"/>
</radialGradient>
<radialGradient id="paint4_radial_362_226" cx="0" cy="0" r="1" gradientUnits="userSpaceOnUse" gradientTransform="translate(892.222 63.8477) rotate(110.06) scale(305.419 564.937)">
<stop offset="0.11" stop-color="#231F20"/>
<stop offset="1" stop-color="#231F20" stop-opacity="0"/>
</radialGradient>
</defs>
</svg>
