<svg width="160" height="160" viewBox="0 0 160 160" fill="none" xmlns="http://www.w3.org/2000/svg">
<g filter="url(#filter0_b_363_622)">
<path d="M0 80C0 20 20 0 80 0C140 0 160 20 160 80C160 140 140 160 80 160C20 160 0 140 0 80Z" fill="url(#paint0_linear_363_622)"/>
</g>
<path d="M126.708 86.4503L128.734 80.9292L111.539 80.8694H111.217L112.415 77.6129L118.805 77.6368L124.073 77.6548C124.842 77.6548 125.581 77.5353 126.297 77.344C125.659 77.2066 125.027 77.0692 124.395 76.8959C122.095 76.2685 119.859 75.4081 117.553 74.8225C113.983 73.9143 110.293 73.6693 106.604 73.7051C105.298 74.6612 104.255 75.9877 103.671 77.5831L102.473 80.8396L101.967 82.2198L100.447 86.3547L117.964 86.4145L117.171 88.6134C117.279 88.6373 117.392 88.6492 117.499 88.6791C119.806 89.2706 122.041 90.1251 124.342 90.7525C124.586 90.8182 124.836 90.866 125.081 90.9258L126.279 87.6095L126.708 86.4503Z" fill="#2A5C9E"/>
<path d="M117.553 74.8165C119.865 75.408 122.095 76.2625 124.395 76.8899C125.021 77.0632 125.659 77.2006 126.297 77.338C128.865 76.633 131.005 74.7448 131.953 72.1515L126.72 72.1336L111.557 72.0798C109.733 72.0738 108.016 72.6714 106.604 73.6991C110.287 73.6633 113.983 73.9082 117.553 74.8165Z" fill="#144F92"/>
<path d="M117.499 88.6851C117.392 88.6552 117.279 88.6432 117.171 88.6193L115.747 92.5929C115.109 94.3197 113.464 95.467 111.628 95.461L103.039 95.4311C101.251 95.4251 99.5646 95.9928 98.1699 96.9787C96.8169 97.9407 95.7441 99.2971 95.1421 100.928L115.538 101C119.061 101.012 122.214 98.8131 123.436 95.5028L125.087 90.9317C124.842 90.872 124.592 90.8242 124.348 90.7585C122.047 90.1251 119.812 89.2706 117.499 88.6851Z" fill="#4081C0"/>
<path d="M84.3061 77.5113L86.1896 77.5172H86.8452C87.3697 77.3619 87.9002 77.2244 88.4247 77.0571C91.232 76.1728 93.9976 75.1451 96.8764 74.5416C98.9565 74.1054 101.078 73.9201 103.206 73.8066L103.856 72.0439L83.4478 71.9722C81.4571 71.9662 79.6034 72.6833 78.1312 73.8903C77.0047 74.8164 76.0988 76.0234 75.5743 77.4575L75.5683 77.4754L74.5908 80.1404C77.7677 79.7042 80.9147 79.0887 84.02 78.3L84.3061 77.5113Z" fill="#144F92"/>
<path d="M67.0454 100.827L69.9183 100.839C73.4408 100.851 76.5998 98.6517 77.8157 95.3415L78.5309 93.3636C75.4852 93.9313 72.4097 94.3496 69.3163 94.5826L67.0454 100.827Z" fill="#4081C0"/>
<path d="M100.173 82.0763L100.632 80.8275L101.83 77.571L103.212 73.8126C101.085 73.9261 98.9627 74.1113 96.8826 74.5415C94.0038 75.145 91.2322 76.1728 88.4309 77.0571C87.9064 77.2244 87.3759 77.3619 86.8514 77.5172L93.0918 77.5411L92.1442 80.1164L91.8938 80.7976L83.1143 80.7677L84.0203 78.3059C80.9149 79.1007 77.7679 79.7101 74.5911 80.1463L74.3765 80.7379L72.3619 86.259L71.748 87.938L69.3281 94.5885C72.4215 94.3495 75.4911 93.9372 78.5427 93.3695L79.8719 89.7007L81.1057 86.2948L89.8852 86.3247L88.1865 90.9914C88.2521 90.9735 88.3236 90.9555 88.3892 90.9316C91.1965 90.0473 93.962 89.0196 96.8409 88.4161C97.2044 88.3384 97.574 88.3145 97.9376 88.2488L98.623 86.3486L100.173 82.0763Z" fill="#2A5C9E"/>
<path d="M88.3714 90.9258C88.3058 90.9437 88.2343 90.9616 88.1687 90.9855L87.3343 93.28L84.5627 100.892L87.4356 100.904C90.6482 100.916 93.539 99.076 94.9515 96.2377C95.0886 95.9629 95.2257 95.694 95.333 95.4072L97.9198 88.2548C97.5562 88.3205 97.1867 88.3445 96.8231 88.4221C93.9443 89.0137 91.1787 90.0414 88.3714 90.9258Z" fill="#4081C0"/>
<path d="M58.6887 94.7498L56.4834 100.791L59.3563 100.803C62.8788 100.815 66.0378 98.6158 67.2537 95.2995L67.4742 94.6901C64.5536 94.8514 61.6212 94.8813 58.6887 94.7498Z" fill="#4081C0"/>
<path d="M52.7164 77.6427L52.8058 77.3918L54.5641 77.3977L53.4436 80.475C56.2926 80.7738 59.1535 80.953 62.0145 80.9709L63.3079 77.4276L65.0066 77.4336L63.7251 80.947C66.7231 80.9112 69.7152 80.726 72.6953 80.3794L75.3179 73.1912L75.7709 71.9483L72.8861 71.9364C72.8861 71.9364 72.8861 71.9364 72.8801 71.9364L65.3165 71.9065H62.4436L54.8204 71.8766L52.2873 71.8647H51.9475C48.431 71.8527 45.2839 74.0456 44.074 77.3499L43.5256 78.8557C46.2435 79.4652 48.9912 79.9313 51.7568 80.2778L52.7164 77.6427Z" fill="#144F92"/>
<path d="M48.0737 95.186L46.0413 100.749L48.9022 100.761C52.4247 100.773 55.5837 98.574 56.7996 95.2577L57.0201 94.6483C54.2069 94.469 51.3996 94.1523 48.6161 93.7042L48.0737 95.186Z" fill="#4081C0"/>
<path d="M62.015 80.9769C59.154 80.959 56.2931 80.7797 53.4441 80.481L48.6162 93.7042C51.3997 94.1523 54.207 94.469 57.0262 94.6483L58.6951 90.0772L62.015 80.9769Z" fill="#2A5C9E"/>
<path d="M72.6954 80.3854C69.7153 80.732 66.7232 80.9113 63.7252 80.9531L60.6377 89.4081L58.6887 94.7499C61.6152 94.8814 64.5477 94.8515 67.4742 94.6902L69.9477 87.9023L72.6954 80.3854Z" fill="#2A5C9E"/>
<path d="M43.5197 78.8617L42.1429 82.6261L38.8826 91.5651C41.5409 92.3179 44.2349 92.9394 46.9528 93.4353L51.7509 80.2838C48.9853 79.9372 46.2376 79.4652 43.5197 78.8617Z" fill="#2A5C9E"/>
<path d="M36.0515 99.321L35.5449 100.713L38.4059 100.725C41.535 100.737 44.3662 98.9983 45.8145 96.2856C45.9993 95.945 46.1662 95.5924 46.3033 95.222L46.9529 93.4354C44.235 92.9454 41.541 92.318 38.8827 91.5651L36.0515 99.321Z" fill="#4081C0"/>
<path d="M48.1213 66.3256L125.575 66.6005C130.219 66.6184 134.385 63.7264 136 59.3585L58.5459 59.0836C53.8969 59.0717 49.7366 61.9577 48.1213 66.3256Z" fill="#144F92"/>
<path d="M25.49 99.1417L24.9297 100.671L27.7906 100.683C29.2211 100.689 30.5801 100.313 31.7781 99.6675C33.5423 98.7174 34.9609 97.1519 35.688 95.1801L37.196 91.0512C34.5735 90.2505 31.9926 89.3303 29.4595 88.2787L25.49 99.1417Z" fill="#4081C0"/>
<path d="M44.2054 71.8409L46.2319 66.3198L46.5061 65.5788C47.1856 63.9117 49.2061 59.8964 53.2353 59.0658L48.926 59.0479H48.3955L34.4722 59.0001C29.8173 58.9822 25.6391 61.8682 24 66.2421L37.5001 66.2899L35.4736 71.811L33.906 76.1012C36.4987 77.0095 39.1272 77.7922 41.7915 78.4495L44.2054 71.8409Z" fill="#144F92"/>
<path d="M41.7914 78.4435C39.1272 77.7922 36.4927 77.0035 33.906 76.0952L30.8424 84.4785L29.4536 88.2847C31.9867 89.3364 34.5676 90.2565 37.1901 91.0572L40.0212 83.2954L41.7914 78.4435Z" fill="#2A5C9E"/>
<path d="M98.7957 66.5049L125.575 66.6005C130.218 66.6184 134.385 63.7264 136 59.3585L109.22 59.2629C104.577 59.2509 100.417 62.143 98.7957 66.5049Z" fill="#E9292A"/>
<path d="M108.541 60.7866L107.164 64.5689H107.152L105.793 60.7746H105.364L106.92 65.0111H107.379L108.964 60.7866H108.541Z" fill="white"/>
<path d="M109.363 60.7925L109.345 65.023H109.751L109.769 60.7925H109.363Z" fill="white"/>
<path d="M111.044 64.6824L111.05 63.0093L113.404 63.0153V62.6747L111.05 62.6687L111.056 61.1391L113.571 61.151V60.8104L110.651 60.7925L110.633 65.023L113.589 65.0349V64.6943L111.044 64.6824Z" fill="white"/>
<path d="M113.714 60.8044V61.145L115.175 61.151L115.163 65.0409H115.568L115.58 61.151L117.052 61.157V60.8164L113.714 60.8044Z" fill="white"/>
<path d="M120.378 60.8284L120.366 64.4076H120.354L117.904 60.8165H117.451L117.434 65.0469H117.827L117.839 61.4678H117.851L120.312 65.0589H120.765L120.783 60.8284H120.378Z" fill="white"/>
<path d="M123.31 60.8404H122.857L121.153 65.0649H121.57L122.089 63.7563L124.014 63.7623L124.526 65.0768H124.956L123.31 60.8404ZM122.214 63.4157L123.066 61.2347L123.871 63.4217L122.214 63.4157Z" fill="white"/>
<path d="M128.847 60.8583L127.381 64.5629L125.933 60.8463H125.337L125.325 65.0768H125.718L125.73 61.42H125.754L127.191 65.0828H127.566L129.02 61.4319H129.044L129.032 65.0888H129.426L129.444 60.8583H128.847Z" fill="white"/>
<defs>
<filter id="filter0_b_363_622" x="-16" y="-16" width="192" height="192" filterUnits="userSpaceOnUse" color-interpolation-filters="sRGB">
<feFlood flood-opacity="0" result="BackgroundImageFix"/>
<feGaussianBlur in="BackgroundImageFix" stdDeviation="8"/>
<feComposite in2="SourceAlpha" operator="in" result="effect1_backgroundBlur_363_622"/>
<feBlend mode="normal" in="SourceGraphic" in2="effect1_backgroundBlur_363_622" result="shape"/>
</filter>
<linearGradient id="paint0_linear_363_622" x1="4.93228e-07" y1="9" x2="160" y2="160" gradientUnits="userSpaceOnUse">
<stop stop-color="#B5B5B5"/>
<stop offset="1" stop-color="#F5F5F5" stop-opacity="0.58"/>
</linearGradient>
</defs>
</svg>
