<?xml version="1.0" encoding="utf-8"?>
<!-- Generator: Adobe Illustrator 27.1.0, SVG Export Plug-In . SVG Version: 6.00 Build 0)  -->
<svg version="1.1" id="Layer_1" xmlns="http://www.w3.org/2000/svg" xmlns:xlink="http://www.w3.org/1999/xlink" x="0px" y="0px"
	 viewBox="0 0 200 205.9" style="enable-background:new 0 0 200 205.9;" xml:space="preserve">
<style type="text/css">
	.st0{fill-rule:evenodd;clip-rule:evenodd;fill:#FF0000;}
	.st1{fill:#FFFFFF;}
</style>
<path class="st0" d="M39.7,3.5h120.6c21.8,0,39.7,17.9,39.7,39.7v120.6c0,21.8-17.9,39.7-39.7,39.7H39.7C17.8,203.5,0,185.6,0,163.8
	V43.2C0,21.4,17.8,3.5,39.7,3.5L39.7,3.5z"/>
<path id="polygon7431_00000127758193469046270780000014065350116744712121_" class="st1" d="M61.7,59.4v88.2l76.6-44.1L61.7,59.4z"
	/>
</svg>
