<?xml version="1.0" encoding="utf-8"?>
<!-- Generator: Adobe Illustrator 27.1.0, SVG Export Plug-In . SVG Version: 6.00 Build 0)  -->
<svg version="1.1" id="Layer_1" xmlns="http://www.w3.org/2000/svg" xmlns:xlink="http://www.w3.org/1999/xlink" x="0px" y="0px"
	 viewBox="0 0 1920 1080" style="enable-background:new 0 0 1920 1080;" xml:space="preserve">
<style type="text/css">
	.st0{fill:#16102C;}
	.st1{opacity:0.21;fill:url(#SVGID_1_);}
	.st2{opacity:0.2;}
	.st3{clip-path:url(#SVGID_00000070816341527174540930000000125891150920140941_);}
	.st4{opacity:0.55;}
	.st5{fill:url(#SVGID_00000004505796686874605770000006585497924506308530_);}
	.st6{fill:url(#SVGID_00000085234937570065992400000012163622451656180661_);}
	.st7{fill:url(#SVGID_00000018218197886417550060000010436437456314650028_);}
	.st8{fill:url(#SVGID_00000063619325713631932570000011669927078197137577_);}
	.st9{opacity:0.54;}
	.st10{fill:url(#SVGID_00000150799536369706747810000004741484319640656826_);}
	.st11{fill:url(#SVGID_00000044174560810763609430000014078267228652507561_);}
	.st12{fill:url(#SVGID_00000104670280443483967940000007658672498120605838_);}
	.st13{fill:url(#SVGID_00000148628047223734781830000001764382498136494734_);}
	.st14{fill:url(#SVGID_00000158004093151667957330000013714374879417829016_);}
	.st15{opacity:0.69;fill:url(#SVGID_00000182487883179346993210000000994214791771694511_);}
	.st16{opacity:0.69;fill:url(#SVGID_00000130643872975139684720000009386290989106655628_);}
	.st17{opacity:0.69;fill:url(#SVGID_00000110434635184205363710000008259867916703600312_);}
	.st18{opacity:0.5;fill:url(#SVGID_00000151527137674211990420000003078677373656379319_);}
	.st19{opacity:0.23;}
	.st20{clip-path:url(#SVGID_00000109007804987971656910000002772675155063047045_);}
	.st21{fill:#55A4DB;}
</style>
<g>
	<g>
		<rect class="st0" width="1920" height="1080"/>
		<linearGradient id="SVGID_1_" gradientUnits="userSpaceOnUse" x1="707.6609" y1="128.3977" x2="1390.4957" y2="1242.2028">
			<stop  offset="0" style="stop-color:#1B4675"/>
			<stop  offset="1" style="stop-color:#272D6C"/>
		</linearGradient>
		<rect class="st1" width="1920" height="1080"/>
	</g>
	<g class="st2">
		<g>
			<defs>
				<rect id="SVGID_00000062166242266833737410000010154209992412468108_" width="1920" height="1080"/>
			</defs>
			<clipPath id="SVGID_00000056385085470799165360000012007730637928538246_">
				<use xlink:href="#SVGID_00000062166242266833737410000010154209992412468108_"  style="overflow:visible;"/>
			</clipPath>
			<g style="clip-path:url(#SVGID_00000056385085470799165360000012007730637928538246_);">
				<g id="bottom-left" class="st4">
					<g>
						
							<linearGradient id="SVGID_00000134939996807431165730000005399586806605963393_" gradientUnits="userSpaceOnUse" x1="605.8429" y1="657.6607" x2="155.7904" y2="851.7205">
							<stop  offset="0" style="stop-color:#5BC2AB"/>
							<stop  offset="1" style="stop-color:#5BC2AB;stop-opacity:0"/>
						</linearGradient>
						<path style="fill:url(#SVGID_00000134939996807431165730000005399586806605963393_);" d="M132.8,469.1
							c31.1-10.3,60.3-24.5,91.5-34.6C282.4,415.9,349.5,413,406,435c69.3,27,115.1,92,109.9,156.3c-4.3,53.1-39,100.4-68.8,147.2
							c-29.8,46.9-56.2,100.1-42.1,152c8.8,32.5,32.7,60.6,47.6,91.5c19.7,40.9,23.3,87.1,10.1,129.8c-7.9,25.6-22.2,50.4-45.5,68.2
							c-17.9,13.7-40.2,22.5-62.8,29.8c-61.3,19.7-130.9,28.7-192,8.6c-23.8-7.8-45.4-19.7-66.8-31.5
							c-69.2-38.2-141.7-79.4-177.9-142.2c-11.5-20-18.9-41.4-25.3-62.9c-34.6-116.2-42.6-238-23.5-356.8c3.2-20,7.3-40.1,16.9-58.5
							c12.2-23.5,32.7-43.1,53.9-61.4c27.7-23.9,44.5-23.5,78.9-18C53.8,492.7,100.4,479.8,132.8,469.1z"/>
						
							<linearGradient id="SVGID_00000174571126281747468260000000395334134083268286_" gradientUnits="userSpaceOnUse" x1="472.1095" y1="707.1258" x2="85.5907" y2="911.4719">
							<stop  offset="0" style="stop-color:#5BC2AB"/>
							<stop  offset="1" style="stop-color:#5BC2AB;stop-opacity:0"/>
						</linearGradient>
						<path style="fill:url(#SVGID_00000174571126281747468260000000395334134083268286_);" d="M-53.6,603.9
							C-33.2,586.2-19.8,585,5.7,587c26.6,2,61.1-8.5,86.3-17.2c23.8-8.2,46.3-18.8,69.8-26.8c27.7-9.4,57.9-15.2,87.7-14.3
							c29.1,0.9,57.4,9.2,79.5,22.7c14.6,8.9,27.1,19.5,37.1,31.7c24.7,30,36.4,68.3,29.8,106.4c-7.4,43.7-36,83.5-59.5,123.4
							c-22.8,38.7-42,81.9-32.5,124.2c5.9,26.7,22.6,50.3,34,75.7c0.4,1,0.9,2,1.3,2.9c11.4,26.6,16.8,55.2,13.6,83.2
							c-0.7,6.4-1.9,12.7-3.6,19c-5.6,21-16.8,41.4-35.8,55.7c-13,9.8-29,16.3-45.2,21.6c-44,14.3-93.6,19-138.3,7.5
							c-15.3-3.9-30.3-8.3-44.7-14.4c-6.5-2.8-12.9-5.8-19.2-9c-9.5-4.8-18.9-9.9-28.1-15.1c-55.5-31.8-105-71.5-131.8-122.7
							c-8.8-16.8-14.8-34.4-19.8-52.3c-18.1-64.9-24.9-131.9-20.6-198.2c1.6-24.8,4.7-49.6,10.4-73.5c1.6-6.7,3.3-13.4,5.3-20
							c4.5-15.5,9.8-30.8,18.9-44.9C-88.2,634.4-70.9,618.9-53.6,603.9z"/>
						
							<linearGradient id="SVGID_00000106145084783588340230000009933285753337076666_" gradientUnits="userSpaceOnUse" x1="346.7702" y1="766.0204" x2="29.745" y2="967.2413">
							<stop  offset="0" style="stop-color:#5BC2AB"/>
							<stop  offset="1" style="stop-color:#5BC2AB;stop-opacity:0"/>
						</linearGradient>
						<path style="fill:url(#SVGID_00000106145084783588340230000009933285753337076666_);" d="M-47,702.7
							C-34,691.2-23.7,688.5-7.3,687c18.1-1.6,40.6-9.8,58.3-16.5c16.4-6.2,32.2-13.3,48.2-19c25.9-9.3,54.2-15.5,82.2-13.6
							c27.6,2,54,13.1,70.6,29.9c9.5,9.6,16.3,20.3,21.1,31.8c11.3,27.4,12.3,57.9,2.8,88.1c-10.6,34.4-33.1,66.6-50.2,99.5
							c-15.8,30.4-27.8,63.7-22.9,96.5c3.1,20.8,12.5,40,20.3,60c0.3,0.8,0.6,1.5,0.9,2.3c8,20.6,14,42,13.2,63.5
							c-0.2,4.9-0.7,9.8-1.7,14.7c-3.3,16.4-11.4,32.3-26.2,43.3c-8,5.9-17.7,10.1-27.6,13.4c-26.8,9-56.9,10.9-84.7,6.4
							c-14.4-2.3-28.8-3.9-42.6-8.3c-6.3-2-12.4-4.4-18.4-7.1c-9-4-17.8-8.7-26.3-13.6c-51.6-29.9-93.3-71.1-115.6-120
							c-6.2-13.5-10.7-27.5-14.3-41.6c-12.9-51.3-15.2-104.4-7.7-156.2c2.7-19.2,6.9-38.4,14.5-56.1c2.1-4.9,4.4-9.7,6.8-14.4
							c5.7-11,12.3-21.5,20.9-31.3C-74.6,725.8-60.4,714.4-47,702.7z"/>
						
							<linearGradient id="SVGID_00000007403857242594154090000014544780606306654618_" gradientUnits="userSpaceOnUse" x1="233.6348" y1="829.8205" x2="-14.5858" y2="1016.4827">
							<stop  offset="0" style="stop-color:#5BC2AB"/>
							<stop  offset="1" style="stop-color:#5BC2AB;stop-opacity:0"/>
						</linearGradient>
						<path style="fill:url(#SVGID_00000007403857242594154090000014544780606306654618_);" d="M36.6,759.9
							c23.8-9.7,50.5-15.8,76.7-12.8c26.2,3,51.7,16.5,61.6,37.1c4.8,10,5.8,21,5.1,31.8c-3.6,52.1-45,96.2-65.1,145.5
							c-14.9,36.7-17.8,77.1-6.1,114.7c4.5,14.6,11.2,28.8,12.9,43.8c1.7,15-2.6,31.6-16.3,41.2c-11.2,7.8-26.5,9.7-41,10.5
							c-13.6,0.7-27.4,0.6-40.6-2.2c-15.2-3.2-29.2-9.7-42-17.2c-47.7-27.9-82.3-70.4-99.5-117.2c-17.1-46.8-17.2-97.5-3.5-145
							c3.9-13.6,9-27.2,18.5-38.7c16.4-19.9,43-32.2,62.4-49.8C-21,784,11,770.2,36.6,759.9z"/>
					</g>
				</g>
				<g class="st9">
					
						<linearGradient id="SVGID_00000181057783030784384510000008109155304387458222_" gradientUnits="userSpaceOnUse" x1="1567.5139" y1="914.542" x2="1769.2466" y2="986.5893">
						<stop  offset="0" style="stop-color:#55A4DB"/>
						<stop  offset="1" style="stop-color:#55A4DB;stop-opacity:0"/>
					</linearGradient>
					<path style="fill:url(#SVGID_00000181057783030784384510000008109155304387458222_);" d="M1936.2,772.7
						c-20.5-36.5-45-71.9-78.5-100.7c-33.5-28.8-76.9-50.7-124.3-55.9c-26.5-2.9-56.6,0.6-73.9,17.8c-23.4,23.2-12.8,58.2-2.6,87.4
						c17.2,49.4,30,100.4,29.5,151.8c-0.5,51.5-14.9,103.7-48.4,146.7c-37.5,48-99.9,88.5-101.6,146c-0.7,22.1,8.4,43.7,21,63.1
						c55.6,85.2,188.9,127.5,297.3,94.4c193.2-59,179.2-263.6,142.6-400.8C1983.5,870.9,1963,820.5,1936.2,772.7z"/>
					
						<linearGradient id="SVGID_00000132773957352423613800000013994082910808753561_" gradientUnits="userSpaceOnUse" x1="1604.5222" y1="931.9112" x2="1820.3735" y2="1067.5576">
						<stop  offset="0" style="stop-color:#55A4DB"/>
						<stop  offset="1" style="stop-color:#55A4DB;stop-opacity:0"/>
					</linearGradient>
					<path style="fill:url(#SVGID_00000132773957352423613800000013994082910808753561_);" d="M1884.8,786.3
						c-21.1-20.8-50.2-37.6-81.8-42.7c-7-1.1-14-1.7-21.1-1.7c-4.7,0-9.4,0.2-14.1,0.7c-17.4,1.9-34.5,7.3-45.9,18.7
						c-19.3,19.1-15.4,46.6-11.6,70.4c4,24.6,6.9,49.8,7,74.7c0.1,15.7-1,31.3-3.7,46.9c-6.7,40.1-23.8,79.9-54.4,112.3
						c-13.6,14.2-29.9,27.4-45.3,40.6c-20.1,17.2-38.9,34.5-47.4,55.8c-1.5,3.8-2.6,7.7-3.5,11.7c-3.5,17.3,0.5,35.1,9.4,51.8
						c9.5,17.9,28,31.3,47.1,41.3c44.9,23.3,99.2,35.6,153.2,33.9c25.8-0.8,50.9-8.2,72.8-15.5c5.6-1.9,7.9,5.4,13.6,3.7
						c139.5-43.2,134-188.3,116.7-289.7c-7.2-42.4-18.5-84.9-36-125.5c-2.4-5.6-4.9-11.1-7.5-16.6
						C1920.2,831.8,1906,807.2,1884.8,786.3z"/>
					
						<linearGradient id="SVGID_00000157270925609514825210000015774075182318569400_" gradientUnits="userSpaceOnUse" x1="1666.5493" y1="981.2166" x2="1838.7667" y2="1151.2762">
						<stop  offset="0" style="stop-color:#55A4DB"/>
						<stop  offset="1" style="stop-color:#55A4DB;stop-opacity:0"/>
					</linearGradient>
					<path style="fill:url(#SVGID_00000157270925609514825210000015774075182318569400_);" d="M1911.9,900.6
						c-14.8-18.1-39-32.7-64.7-33.8c-5.7-0.2-11.3,0.1-16.8,1c-3.7,0.6-7.3,1.4-10.9,2.3c-13.3,3.6-25.9,9.5-35.2,18.7
						c-15.3,15-18,35.1-20.5,53.4c-2.6,18.9-5.6,38.3-10.7,57c-3.2,11.7-7.2,23.1-12.2,34.4c-12.9,28.8-32.6,56.1-60.4,77.8
						c-12.4,9.7-26.5,18.4-40.3,26.8c-17.6,10.7-34.8,21.1-45.6,35.5c-1.9,2.5-3.5,5.2-5,8.1c-6.5,12.6-7.7,26.7-2.2,40.6
						c7.2,18.2,29.3,28.9,50.1,35.1c49.1,14.6,103.6,18.6,156.1,10.6c25.7-3.9,52.1-11.8,68.3-27.1c2.9-0.6-1.4,14.6,1.4,13.7
						c85.8-27.4,91-114,90.7-178.6c-0.2-33.7-2.8-67.9-11-101.2c-1.1-4.6-2.3-9.2-3.5-13.8C1933.8,939.8,1926.7,918.7,1911.9,900.6z
						"/>
					
						<linearGradient id="SVGID_00000072973933419187984940000009450503125104737937_" gradientUnits="userSpaceOnUse" x1="1735.3506" y1="1063.3109" x2="1826.5764" y2="1204.4938">
						<stop  offset="0" style="stop-color:#55A4DB"/>
						<stop  offset="1" style="stop-color:#55A4DB;stop-opacity:0"/>
					</linearGradient>
					<path style="fill:url(#SVGID_00000072973933419187984940000009450503125104737937_);" d="M1867.7,1220.2
						c31.5-13.2,53.3-39.4,64.7-67.5c11.4-28.1,13.6-58.2,14.5-87.9c0.5-16.9,0.6-34.5-7.9-49.9s-27.8-27.8-47.6-25
						c-7.4,1.1-14.1,4.1-20.3,7.6c-38.6,22.1-55.8,62-82.4,94.3c-29.7,36-73.2,63.8-122.3,78.2c-15,4.4-30.7,7.6-43.8,15.1
						c-13.1,7.5-23.3,20.6-20.3,33.7c4.3,18.7,30.7,26.4,53.1,28.9c53.3,5.9,108.1,1.5,159.1-12.6c25.6-7.1,52.2-18.2,63.8-38.7
						L1867.7,1220.2z"/>
				</g>
				
					<radialGradient id="SVGID_00000047039610273400812590000017053282507194805674_" cx="1213.0673" cy="715.0883" r="468.2658" gradientTransform="matrix(2.56 0 0 2.16 -1548.7992 -779.0345)" gradientUnits="userSpaceOnUse">
					<stop  offset="0" style="stop-color:#5BC2AB"/>
					<stop  offset="1" style="stop-color:#5BC2AB;stop-opacity:0"/>
				</radialGradient>
				<path style="fill:url(#SVGID_00000047039610273400812590000017053282507194805674_);" d="M273.3,265.8
					c86.3-16.6,180.1-36.8,260-4.8c38.4,15.4,69.6,41.8,92.3,72.2c34.2,45.8,49.8,101.4,43.7,155.3C654.9,613.6,530,719,534.1,844.6
					c2,62.6,36.5,121.6,41.9,184.1c7.3,85.7-44.1,171.8-125.7,223.3s-189.8,69.3-290.1,54.2c-45.9-6.9-90.7-20.5-130-41.7
					c-83-44.9-135.6-119.9-179.1-194.5c-108.1-185-180.7-395-132.6-597.3c13.7-57.9,38.1-115.4,83.2-160.5
					c51.5-51.5,129.3-85.6,206.9-60.7C99.3,280.6,177.9,284.2,273.3,265.8z"/>
				
					<linearGradient id="SVGID_00000062191946152211919160000017122520937103723693_" gradientUnits="userSpaceOnUse" x1="1580.6257" y1="501.3304" x2="1671.37" y2="49.388">
					<stop  offset="0" style="stop-color:#55A4DB"/>
					<stop  offset="1" style="stop-color:#55A4DB;stop-opacity:0"/>
				</linearGradient>
				<path style="opacity:0.69;fill:url(#SVGID_00000062191946152211919160000017122520937103723693_);" d="M1894.7,422.8
					c-124.2-94-288.9-146.9-453.8-185.5c-47-11-94.9-21.2-137.4-40.5c-99.5-45.1-155.8-135.1-170.6-224.9
					c-2.4-14.4-3.6-29.9,5.3-42.7c7.7-11.2,22-18.5,35.9-25.1c100.4-47.5,211.5-80.8,326.5-97.9c-18.5,31.6-20.2,67.6-19.3,102.4
					c1.3,49.7,7.9,100.9,38,144.5c33.5,48.6,92.9,82.9,155,108.6c62.1,25.7,128.6,44.4,189.8,71.4c77.6,34.2,145.5,81.2,203.5,134.4
					c26.1,23.9,50.7,49.6,64.1,79.4c13.4,29.7,14.3,64.3-5.6,91.7C2048.2,645.9,1937.9,455.6,1894.7,422.8z"/>
				
					<linearGradient id="SVGID_00000019636950610433320720000005744818096028826790_" gradientUnits="userSpaceOnUse" x1="1725.4032" y1="22.891" x2="2003.2871" y2="22.891">
					<stop  offset="0" style="stop-color:#55A4DB"/>
					<stop  offset="1" style="stop-color:#55A4DB;stop-opacity:0"/>
				</linearGradient>
				<path style="opacity:0.69;fill:url(#SVGID_00000019636950610433320720000005744818096028826790_);" d="M1784.5,56.2
					c31.5,35.8,79.7,57.9,127.1,77.5c15,6.2,32.7,12.3,47.6,6.1c6.5-2.7,11.5-7.4,15.9-12.3c31.3-35.2,36.1-84.8,16.3-125.6
					s-61.9-72.4-110.6-88.3c-30-9.8-63.6-14-94.5-6.5c-26,6.3-73.8,32.6-57.7,59.8c8.1,13.6,17.7,24.6,24.4,39.2
					C1761.2,23.8,1771.1,41,1784.5,56.2z"/>
				
					<linearGradient id="SVGID_00000005240071303419185080000012224199009954483606_" gradientUnits="userSpaceOnUse" x1="875.0505" y1="1055.2294" x2="1218.366" y2="771.0274">
					<stop  offset="0" style="stop-color:#55A4DB"/>
					<stop  offset="1" style="stop-color:#55A4DB;stop-opacity:0"/>
				</linearGradient>
				<path style="opacity:0.69;fill:url(#SVGID_00000005240071303419185080000012224199009954483606_);" d="M1130.7,874.7
					c17.8-33.2,26-70.1,23.4-106.6c-2.3-32.7-12.9-64.5-20.6-96.6c-7.7-32.1-12.4-65.6-3-97.4c9.5-31.8,35.7-61.6,72.8-71
					c-12.4,19-11.7,42.4-4.7,63.2c7,20.9,19.7,39.9,30.8,59.5c29.3,51.6,48,108,50,165.2c2,57.2-13.1,115.3-47.4,164.8
					c-40.2,58-106.3,104.7-125.3,169.9c-3.8,12.9-5.7,26.5-13.3,38.2c-10.8,16.4-32.2,26.7-54.2,29.2c-22,2.5-44.6-2.2-64.7-10.1
					c-117.5-46.5,57.2-190.1,99.3-234.3C1095.7,925.9,1116.2,901.7,1130.7,874.7z"/>
				
					<radialGradient id="SVGID_00000137132792486241257990000016962574096986051253_" cx="621.399" cy="481.2178" r="158.7073" gradientTransform="matrix(2.56 0 0 2.16 -1548.7992 -779.0345)" gradientUnits="userSpaceOnUse">
					<stop  offset="0" style="stop-color:#5BC2AB"/>
					<stop  offset="1" style="stop-color:#5BC2AB;stop-opacity:0"/>
				</radialGradient>
				<path style="opacity:0.5;fill:url(#SVGID_00000137132792486241257990000016962574096986051253_);" d="M101.8,154.7
					c21.5-17.5,38.7-38.4,58.2-57.5C211,47.4,279.2,10.3,353.9-8.5c2.8-0.7,5.6-1.4,7.7-3.1c5.9-4.7,1.8-13.1-2.9-18.6
					c-38.3-45-104.5-70.3-170.1-71.2C123-102.4,58.6-80.6,6.7-46.7c-78,51-129.1,130.1-137.7,213c-2,18.9,0.1,48.1,26.3,55.4
					c16.8,4.6,40-0.8,56.7-3.4C5.6,210,62.1,187,101.8,154.7z"/>
				<g class="st19">
					<defs>
						
							<ellipse id="SVGID_00000102504135068234594710000007009769345760166827_" class="st19" cx="1679.1" cy="208.9" rx="267.6" ry="225.8"/>
					</defs>
					<clipPath id="SVGID_00000146494734087845623010000003966179547802333866_">
						<use xlink:href="#SVGID_00000102504135068234594710000007009769345760166827_"  style="overflow:visible;"/>
					</clipPath>
					<g style="clip-path:url(#SVGID_00000146494734087845623010000003966179547802333866_);">
						<line class="st21" x1="1969.9" y1="-242.7" x2="1371.1" y2="262.5"/>
						<line class="st21" x1="1969.9" y1="-256.4" x2="1371.1" y2="248.9"/>
						<line class="st21" x1="1969.9" y1="-270.1" x2="1371.1" y2="235.2"/>
						<line class="st21" x1="1969.9" y1="-283.8" x2="1371.1" y2="221.5"/>
						<line class="st21" x1="1969.9" y1="-297.5" x2="1371.1" y2="207.8"/>
						<line class="st21" x1="1969.9" y1="-311.2" x2="1371.1" y2="194.1"/>
						<line class="st21" x1="1969.9" y1="-324.9" x2="1371.1" y2="180.4"/>
						<line class="st21" x1="1969.9" y1="-338.6" x2="1371.1" y2="166.7"/>
						<line class="st21" x1="1969.9" y1="-352.3" x2="1371.1" y2="153"/>
						<line class="st21" x1="1969.9" y1="-366" x2="1371.1" y2="139.3"/>
						<line class="st21" x1="1969.9" y1="-229" x2="1371.1" y2="276.2"/>
						<line class="st21" x1="1969.9" y1="-215.3" x2="1371.1" y2="289.9"/>
						<line class="st21" x1="1969.9" y1="-201.6" x2="1371.1" y2="303.6"/>
						<line class="st21" x1="1969.9" y1="-187.9" x2="1371.1" y2="317.3"/>
						<line class="st21" x1="1969.9" y1="-174.2" x2="1371.1" y2="331"/>
						<line class="st21" x1="1969.9" y1="-160.6" x2="1371.1" y2="344.7"/>
						<line class="st21" x1="1969.9" y1="-146.9" x2="1371.1" y2="358.4"/>
						<line class="st21" x1="1969.9" y1="-133.2" x2="1371.1" y2="372.1"/>
						<line class="st21" x1="1969.9" y1="-119.5" x2="1371.1" y2="385.8"/>
						<line class="st21" x1="1969.9" y1="-105.8" x2="1371.1" y2="399.5"/>
						<line class="st21" x1="1969.9" y1="-92.1" x2="1371.1" y2="413.2"/>
						<line class="st21" x1="1969.9" y1="-78.4" x2="1371.1" y2="426.9"/>
						<line class="st21" x1="1969.9" y1="-64.7" x2="1371.1" y2="440.6"/>
						<line class="st21" x1="1969.9" y1="-51" x2="1371.1" y2="454.3"/>
						<line class="st21" x1="1969.9" y1="-37.3" x2="1371.1" y2="468"/>
						<line class="st21" x1="1969.9" y1="-23.6" x2="1371.1" y2="481.7"/>
						<line class="st21" x1="1969.9" y1="-9.9" x2="1371.1" y2="495.4"/>
						<line class="st21" x1="1969.9" y1="3.8" x2="1371.1" y2="509.1"/>
						<line class="st21" x1="1969.9" y1="17.5" x2="1371.1" y2="522.8"/>
						<line class="st21" x1="1969.9" y1="31.2" x2="1371.1" y2="536.5"/>
						<line class="st21" x1="1969.9" y1="44.9" x2="1371.1" y2="550.2"/>
						<line class="st21" x1="1969.9" y1="58.6" x2="1371.1" y2="563.8"/>
						<line class="st21" x1="1969.9" y1="72.3" x2="1371.1" y2="577.5"/>
						<line class="st21" x1="1969.9" y1="86" x2="1371.1" y2="591.2"/>
						<line class="st21" x1="1969.9" y1="99.7" x2="1371.1" y2="604.9"/>
						<line class="st21" x1="1969.9" y1="113.4" x2="1371.1" y2="618.6"/>
						<line class="st21" x1="1969.9" y1="127.1" x2="1371.1" y2="632.3"/>
						<line class="st21" x1="1969.9" y1="140.7" x2="1371.1" y2="646"/>
						<line class="st21" x1="1969.9" y1="154.4" x2="1371.1" y2="659.7"/>
						<line class="st21" x1="1969.9" y1="168.1" x2="1371.1" y2="673.4"/>
						<line class="st21" x1="1969.9" y1="181.8" x2="1371.1" y2="687.1"/>
						<line class="st21" x1="1969.9" y1="195.5" x2="1371.1" y2="700.8"/>
						<line class="st21" x1="1969.9" y1="209.2" x2="1371.1" y2="714.5"/>
						<line class="st21" x1="1969.9" y1="222.9" x2="1371.1" y2="728.2"/>
						<line class="st21" x1="1969.9" y1="236.6" x2="1371.1" y2="741.9"/>
						<line class="st21" x1="1969.9" y1="250.3" x2="1371.1" y2="755.6"/>
						<line class="st21" x1="1969.9" y1="264" x2="1371.1" y2="769.3"/>
						<line class="st21" x1="1969.9" y1="277.7" x2="1371.1" y2="783"/>
						<line class="st21" x1="1969.9" y1="291.4" x2="1371.1" y2="796.7"/>
						<line class="st21" x1="1969.9" y1="305.1" x2="1371.1" y2="810.4"/>
					</g>
				</g>
			</g>
		</g>
	</g>
</g>
</svg>
